<?xml version="1.0" encoding="utf-8"?>
<COLLADA xmlns="http://www.collada.org/2005/11/COLLADASchema" version="1.4.1">
<asset>
	<contributor>
		<author>Anonymous</author>
		<authoring_tool>Collada Exporter for Blender 2.6+, by Juan Linietsky (juan@codenix.com)</authoring_tool>
	</contributor>
	<created>2019-08-04T11:54:04Z</created>
	<modified>2019-08-04T11:54:04Z</modified>
	<unit meter="1.0" name="meter"/>
	<up_axis>Z_UP</up_axis>
</asset>
<library_images>
	<image id="id-image-3" name="tank.png">
		<init_from>images/tank.png</init_from>
	</image>
</library_images>
<library_effects>
	<effect id="id-fx-2" name="Material-fx">
		<profile_COMMON>
			<newparam sid="id-fx_surf-4">
				<surface type="2D">
					<init_from>id-image-3</init_from>
					<format>A8R8G8B8</format>
				</surface>
			</newparam>
			<newparam sid="id-fx_sampler-5">
				<sampler2D>
					<source>id-fx_surf-4</source>
				</sampler2D>
			</newparam>
			<technique sid="common">
				<blinn>
					<emission>
						<color>  0.0 0.0 0.0 1.0 </color>
					</emission>
					<ambient>
						<color>  0.0 0.0 0.0 1.0 </color>
					</ambient>
					<diffuse>
						<texture texture="id-fx_sampler-5" texcoord="CHANNEL1"/>
					</diffuse>
					<specular>
						<color>  0.5 0.5 0.5 1.0 </color>
					</specular>
					<shininess>
						<float>50</float>
					</shininess>
					<reflective>
						<color>  1.0 1.0 1.0 1.0 </color>
					</reflective>
					<index_of_refraction>
						<float>4.0</float>
					</index_of_refraction>
				</blinn>
				<extra>
					<technique profile="FCOLLADA">
					</technique>
					<technique profile="GOOGLEEARTH">
						<double_sided>0</double_sided>
					</technique>
				</extra>
			</technique>
		</profile_COMMON>
	</effect>
</library_effects>
<library_materials>
	<material id="id-material-6" name="Material">
		<instance_effect url="#id-fx-2"/>
	</material>
</library_materials>
<library_geometries>
	<geometry id="id-mesh-7" name="Cylinder.002">
		<mesh>
			<source id="id-mesh-7-positions">
				<float_array id="id-mesh-7-positions-array" count="756"> 4.4628798434587225e-08 0.16661226749420166 -0.11515069007873535 0.03246644139289856 0.1632198840379715 -0.9154901504516602 4.4122323572537425e-08 0.16641750931739807 -0.9154901504516602 0.03250443935394287 0.16341090202331543 -0.11515069007873535 0.06368517875671387 0.15374977886676788 -0.9154901504516602 0.03246644139289856 0.1632198840379715 -0.9154901504516602 0.0637597143650055 0.1539297103881836 -0.11515069007873535 0.09245649725198746 0.13837110996246338 -0.9154901504516602 0.09256470203399658 0.13853305578231812 -0.11515069007873535 0.1176747977733612 0.1176750436425209 -0.9154901504516602 0.11781251430511475 0.11781275272369385 -0.11515069007873535 0.13837093114852905 0.09245673567056656 -0.9154901504516602 0.1385328769683838 0.09256494045257568 -0.11515069007873535 0.1537495255470276 0.06368539482355118 -0.9154901504516602 0.1539294719696045 0.06375992298126221 -0.11515069007873535 0.1632196456193924 0.03246666491031647 -0.9154901504516602 0.16341066360473633 0.03250466287136078 -0.11515069007873535 0.16641727089881897 2.7840570737680537e-07 -0.9154901504516602 0.16661202907562256 2.78023208011291e-07 -0.11515069007873535 0.1632196456193924 -0.032466113567352295 -0.9154901504516602 0.16341066360473633 -0.032504111528396606 -0.11515069007873535 0.1537495255470276 -0.06368482112884521 -0.9154901504516602 0.1632196456193924 -0.032466113567352295 -0.9154901504516602 0.1539294719696045 -0.06375935673713684 -0.11515069007873535 0.13837093114852905 -0.09245619922876358 -0.9154901504516602 0.1385328769683838 -0.0925644040107727 -0.11515069007873535 0.1176747977733612 -0.11767449229955673 -0.9154901504516602 0.11781251430511475 -0.11781221628189087 -0.11515069007873535 0.09245649725198746 -0.13837063312530518 -0.9154901504516602 0.09256470203399658 -0.1385325789451599 -0.11515069007873535 0.06368514895439148 -0.1537492275238037 -0.9154901504516602 0.0637596845626831 -0.15392917394638062 -0.11515069007873535 0.03246639668941498 -0.16321934759616852 -0.9154901504516602 -9.660283240009448e-09 -0.16661179065704346 -0.11515069007873535 -1.0103292424901156e-08 -0.16641701757907867 -0.9154901504516602 -9.660283240009448e-09 -0.16661179065704346 -0.11515069007873535 -0.032466426491737366 -0.16321934759616852 -0.9154901504516602 -1.0103292424901156e-08 -0.16641701757907867 -0.9154901504516602 -0.03250442445278168 -0.16341036558151245 -0.11515069007873535 -0.06368514895439148 -0.15374916791915894 -0.9154901504516602 -0.0637596845626831 -0.15392911434173584 -0.11515069007873535 -0.09245649725198746 -0.1383705735206604 -0.9154901504516602 -0.09256470203399658 -0.13853251934051514 -0.11515069007873535 -0.11767479032278061 -0.11767443269491196 -0.9154901504516602 -0.11781251430511475 -0.1178121566772461 -0.11515069007873535 -0.13837094604969025 -0.09245610982179642 -0.9154901504516602 -0.1385328769683838 -0.09256431460380554 -0.11515069007873535 -0.15374954044818878 -0.06368473172187805 -0.9154901504516602 -0.1539294719696045 -0.06375926733016968 -0.11515069007873535 -0.16321958601474762 -0.032465994358062744 -0.9154901504516602 -0.16341060400009155 -0.032503992319107056 -0.11515069007873535 -0.166417196393013 4.2653385889934725e-07 -0.9154901504516602 -0.16661196947097778 4.2632473196135834e-07 -0.11515069007873535 -0.16321952641010284 0.0324668325483799 -0.9154901504516602 -0.16341054439544678 0.03250482678413391 -0.11515069007873535 -0.15374934673309326 0.06368556618690491 -0.9154901504516602 -0.16321952641010284 0.0324668325483799 -0.9154901504516602 -0.15392929315567017 0.06376010179519653 -0.11515069007873535 -0.13837069272994995 0.09245691448450089 -0.9154901504516602 -0.1385326385498047 0.09256511926651001 -0.11515069007873535 -0.11767455190420151 0.11767516285181046 -0.9154901504516602 -0.11781227588653564 0.1178128719329834 -0.11515069007873535 -0.09245625883340836 0.1383712887763977 -0.9154901504516602 -0.06375938653945923 0.15392976999282837 -0.11515069007873535 -0.0636848583817482 0.15374983847141266 -0.9154901504516602 0.14042823016643524 0.14042846858501434 -0.11515069007873535 0.16512614488601685 0.11033398658037186 -0.11515069007873535 -0.0324660986661911 0.1632198840379715 -0.9154901504516602 -0.03250409662723541 0.16341090202331543 -0.11515069007873535 0.16512614488601685 -0.11033346503973007 -0.11515069007873535 0.14042823016643524 -0.14042794704437256 -0.03556203842163086 0.14042823016643524 -0.14042794704437256 -0.11515069007873535 0.11033374816179276 -0.16512586176395416 -0.11515069007873535 0.07599921524524689 -0.18347804248332977 -0.11515069007873535 -0.19477951526641846 -0.03874363750219345 -0.11515069007873535 0.03250443935394287 0.16341090202331543 -0.11515069007873535 4.1843371434424625e-08 0.19859571754932404 -0.11515069007873535 0.03874409943819046 0.19477979838848114 -0.11515069007873535 -0.03874371200799942 0.19477979838848114 -0.11515069007873535 0.18347832560539246 -0.07599889487028122 -0.11515069007873535 -0.07599923759698868 -0.1834779679775238 -0.11515069007873535 -0.11033377051353455 -0.1651257872581482 -0.11515069007873535 -0.14042796194553375 0.1404286026954651 -0.11515069007873535 0.18347832560539246 0.07599945366382599 -0.11515069007873535 0.03250439465045929 -0.16341036558151245 -0.11515069007873535 0.03874404728412628 -0.19477927684783936 -0.11515069007873535 -0.19859541952610016 4.4773591412194946e-07 -0.11515069007873535 0.07599925249814987 0.18347856402397156 -0.11515069007873535 -0.14042824506759644 -0.1404278725385666 -0.11515069007873535 -0.09256446361541748 0.13853323459625244 -0.11515069007873535 -0.11033348739147186 0.1651265174150467 -0.11515069007873535 0.19477955996990204 0.03874431550502777 -0.11515069007873535 -2.2867240545565437e-08 -0.19859525561332703 -0.11515069007873535 -0.16341054439544678 0.03250482678413391 -0.11515069007873535 -0.1947794407606125 0.03874451667070389 -0.11515069007873535 0.11033374816179276 0.16512630879878998 -0.11515069007873535 -0.16512617468833923 -0.11033336073160172 -0.11515069007873535 -0.07599888741970062 0.18347863852977753 -0.11515069007873535 0.19859547913074493 2.7096589860775566e-07 -0.11515069007873535 -0.03874410316348076 -0.19477927684783936 -0.11515069007873535 -0.18347813189029694 0.0759996622800827 -0.11515069007873535 -0.18347835540771484 -0.07599879056215286 -0.11515069007873535 0.16341066360473633 -0.032504111528396606 -0.11515069007873535 0.19477955996990204 -0.03874377906322479 -0.11515069007873535 -0.16512587666511536 0.11033420264720917 -0.11515069007873535 0.07599921524524689 -0.18347804248332977 -0.03556203842163086 0.02960466593503952 -0.14883241057395935 -0.03556203842163086 0.03874404728412628 -0.19477927684783936 -0.03556203842163086 -0.1947794407606125 0.03874451667070389 -0.11515069007873535 -0.18347813189029694 0.0759996622800827 -0.03556203842163086 0.11033374816179276 -0.16512586176395416 -0.03556203842163086 -0.16512587666511536 0.11033420264720917 -0.03556203842163086 0.03874409943819046 0.19477979838848114 -0.03556203842163086 -0.14042796194553375 0.1404286026954651 -0.03556203842163086 0.03874409943819046 0.19477979838848114 -0.11515069007873535 0.07599925249814987 0.18347856402397156 -0.03556203842163086 -0.11033348739147186 0.1651265174150467 -0.03556203842163086 -2.2867240545565437e-08 -0.19859525561332703 -0.03556203842163086 0.11033374816179276 0.16512630879878998 -0.03556203842163086 -0.07599888741970062 0.18347863852977753 -0.03556203842163086 -2.2867240545565437e-08 -0.19859525561332703 -0.11515069007873535 -0.03874410316348076 -0.19477927684783936 -0.03556203842163086 0.14042823016643524 0.14042846858501434 -0.03556203842163086 -0.03874371200799942 0.19477979838848114 -0.03556203842163086 -0.07599923759698868 -0.1834779679775238 -0.03556203842163086 0.16512614488601685 0.11033398658037186 -0.03556203842163086 4.1843371434424625e-08 0.19859571754932404 -0.03556203842163086 -0.11033377051353455 -0.1651257872581482 -0.03556203842163086 0.18347832560539246 0.07599945366382599 -0.03556203842163086 -0.14042824506759644 -0.1404278725385666 -0.03556203842163086 0.19477955996990204 0.03874431550502777 -0.03556203842163086 -0.16512617468833923 -0.11033336073160172 -0.03556203842163086 0.19859547913074493 2.7096589860775566e-07 -0.03556203842163086 -0.18347835540771484 -0.07599879056215286 -0.03556203842163086 0.19477955996990204 -0.03874377906322479 -0.03556203842163086 -0.19477951526641846 -0.03874363750219345 -0.03556203842163086 0.19477955996990204 -0.03874377906322479 -0.11515069007873535 0.18347832560539246 -0.07599889487028122 -0.03556203842163086 -0.19859541952610016 4.4773591412194946e-07 -0.03556203842163086 0.16512614488601685 -0.11033346503973007 -0.03556203842163086 -0.1947794407606125 0.03874451667070389 -0.03556203842163086 -0.029604680836200714 -0.14883241057395935 -0.03556203842163086 -0.05809224396944046 -0.1402467042207718 -0.9154901504516602 -0.05807163938879967 -0.14019697904586792 -0.03556203842163086 0.03874409943819046 0.19477979838848114 -0.03556203842163086 0.05807168409228325 0.14019758999347687 -0.03556203842163086 -0.08430672436952591 0.12617462873458862 -0.03556203842163086 -4.888434546046483e-09 -0.15174823999404907 -0.03556203842163086 0.08430695533752441 0.12617447972297668 -0.03556203842163086 -0.05807137116789818 0.14019764959812164 -0.03556203842163086 -2.2867240545565437e-08 -0.19859525561332703 -0.03556203842163086 -0.029604680836200714 -0.14883241057395935 -0.03556203842163086 0.10730239003896713 0.10730265080928802 -0.03556203842163086 -0.029604384675621986 0.14883294701576233 -0.03556203842163086 -0.05807163938879967 -0.14019697904586792 -0.03556203842163086 0.12617428600788116 0.08430719375610352 -0.03556203842163086 4.4557481260198983e-08 0.15174871683120728 -0.03556203842163086 -0.08430694788694382 -0.12617391347885132 -0.03556203842163086 0.14019733667373657 0.05807190015912056 -0.03556203842163086 -0.10730239003896713 -0.10730203241109848 -0.03556203842163086 0.14883270859718323 0.02960493415594101 -0.03556203842163086 -0.12617428600788116 -0.08430656790733337 -0.03556203842163086 0.15174847841262817 2.8203149327055144e-07 -0.03556203842163086 -0.14019733667373657 -0.058071237057447433 -0.03556203842163086 0.14883270859718323 -0.029604369774460793 -0.03556203842163086 -0.14883264899253845 -0.029604263603687286 -0.03556203842163086 0.14883270859718323 -0.029604369774460793 -0.03556203842163086 0.14019733667373657 -0.0580713227391243 -0.03556203842163086 -0.1517484188079834 4.1710293885444116e-07 -0.03556203842163086 0.12617428600788116 -0.08430665731430054 -0.03556203842163086 -0.14883258938789368 0.029605086892843246 -0.03556203842163086 0.10730239003896713 -0.10730209201574326 -0.03556203842163086 -0.14883258938789368 0.029605086892843246 -0.03556203842163086 -0.14019715785980225 0.058072056621313095 -0.03556203842163086 0.08430695533752441 -0.1261739879846573 -0.03556203842163086 -0.12617404758930206 0.08430736511945724 -0.03556203842163086 0.05807165428996086 -0.1401970386505127 -0.03556203842163086 0.029604703187942505 0.14883294701576233 -0.03556203842163086 -0.10730217397212982 0.10730275511741638 -0.03556203842163086 0.10730239003896713 0.10730265080928802 -0.03556203842163086 0.12621904909610748 0.08433710783720016 -0.9154901504516602 0.12617428600788116 0.08430719375610352 -0.03556203842163086 -0.029604384675621986 0.14883294701576233 -0.03556203842163086 4.3645442815432034e-08 0.15180256962776184 -0.9154901504516602 4.4557481260198983e-08 0.15174871683120728 -0.03556203842163086 -0.08433686196804047 -0.12621866166591644 -0.9154901504516602 -0.08430694788694382 -0.12617391347885132 -0.03556203842163086 0.14024707674980164 0.05809250473976135 -0.9154901504516602 0.14019733667373657 0.05807190015912056 -0.03556203842163086 -0.10734045505523682 -0.10734010487794876 -0.9154901504516602 -0.10730239003896713 -0.10730203241109848 -0.03556203842163086 0.14883270859718323 0.02960493415594101 -0.03556203842163086 0.14888551831245422 0.029615437611937523 -0.9154901504516602 -0.12621904909610748 -0.08433648198843002 -0.9154901504516602 -0.12617428600788116 -0.08430656790733337 -0.03556203842163086 0.15180231630802155 2.810265300468018e-07 -0.9154901504516602 0.15174847841262817 2.8203149327055144e-07 -0.03556203842163086 -0.14024707674980164 -0.058091841638088226 -0.9154901504516602 -0.14019733667373657 -0.058071237057447433 -0.03556203842163086 0.14883270859718323 -0.029604369774460793 -0.03556203842163086 0.14888551831245422 -0.029614875093102455 -0.9154901504516602 -0.14888545870780945 -0.02961476892232895 -0.9154901504516602 -0.14883264899253845 -0.029604263603687286 -0.03556203842163086 0.14883270859718323 -0.029604369774460793 -0.03556203842163086 0.14024707674980164 -0.05809193104505539 -0.9154901504516602 0.14019733667373657 -0.0580713227391243 -0.03556203842163086 -0.15180227160453796 4.1614589463279117e-07 -0.9154901504516602 -0.1517484188079834 4.1710293885444116e-07 -0.03556203842163086 0.12621904909610748 -0.08433657139539719 -0.9154901504516602 0.12617428600788116 -0.08430665731430054 -0.03556203842163086 -0.1517484188079834 4.1710293885444116e-07 -0.03556203842163086 -0.14888539910316467 0.02961558848619461 -0.9154901504516602 -0.14883258938789368 0.029605086892843246 -0.03556203842163086 0.10734046250581741 -0.10734016448259354 -0.9154901504516602 0.10730239003896713 -0.10730209201574326 -0.03556203842163086 -0.1402468979358673 0.05809266120195389 -0.9154901504516602 -0.14019715785980225 0.058072056621313095 -0.03556203842163086 0.08433686196804047 -0.1262187361717224 -0.9154901504516602 0.08430695533752441 -0.1261739879846573 -0.03556203842163086 -0.12617404758930206 0.08430736511945724 -0.03556203842163086 -0.12621882557868958 0.0843372792005539 -0.9154901504516602 0.058092255145311356 -0.14024676382541656 -0.9154901504516602 0.05807165428996086 -0.1401970386505127 -0.03556203842163086 0.029615206643939018 0.14888577163219452 -0.9154901504516602 0.029604703187942505 0.14883294701576233 -0.03556203842163086 -0.1073402464389801 0.10734082758426666 -0.9154901504516602 -0.10730217397212982 0.10730275511741638 -0.03556203842163086 0.029615167528390884 -0.14888520538806915 -0.9154901504516602 0.02960466593503952 -0.14883241057395935 -0.03556203842163086 0.029604703187942505 0.14883294701576233 -0.03556203842163086 0.05809228867292404 0.14024734497070312 -0.9154901504516602 0.05807168409228325 0.14019758999347687 -0.03556203842163086 -0.08433663845062256 0.12621940672397614 -0.9154901504516602 -0.08430672436952591 0.12617462873458862 -0.03556203842163086 -5.818016290959349e-09 -0.15180209279060364 -0.9154901504516602 -4.888434546046483e-09 -0.15174823999404907 -0.03556203842163086 0.08433686196804047 0.1262192577123642 -0.9154901504516602 0.08430695533752441 0.12617447972297668 -0.03556203842163086 -0.05809197574853897 0.1402474045753479 -0.9154901504516602 -0.05807137116789818 0.14019764959812164 -0.03556203842163086 -4.888434546046483e-09 -0.15174823999404907 -0.03556203842163086 -0.029615186154842377 -0.14888520538806915 -0.9154901504516602 0.10734046250581741 0.1073407232761383 -0.9154901504516602 -0.02961488999426365 0.14888577163219452 -0.9154901504516602 -0.1947794407606125 0.03874451667070389 -0.03556203842163086 0.19477955996990204 -0.03874377906322479 -0.03556203842163086 0.029604703187942505 0.14883294701576233 -0.03556203842163086 -4.888434546046483e-09 -0.15174823999404907 -0.03556203842163086 0.14888551831245422 -0.029614875093102455 -0.9154901504516602 -0.15180227160453796 4.1614589463279117e-07 -0.9154901504516602 0.029615206643939018 0.14888577163219452 -0.9154901504516602 -5.818016290959349e-09 -0.15180209279060364 -0.9154901504516602</float_array>
				<technique_common>
				<accessor source="#id-mesh-7-positions-array" count="252" stride="3">
					<param name="X" type="float"/>
					<param name="Y" type="float"/>
					<param name="Z" type="float"/>
				</accessor>
				</technique_common>
			</source>
			<source id="id-mesh-7-normals">
				<float_array id="id-mesh-7-normals-array" count="756"> 0.0 0.6834925413131714 -0.729911208152771 0.19507431983947754 0.9807733297348022 -0.0002136295661330223 0.0 0.999969482421875 -0.0002136295661330223 0.13333536684513092 0.670369565486908 -0.729911208152771 0.382671594619751 0.9238563179969788 -0.0002136295661330223 0.19507431983947754 0.9807733297348022 -0.0002136295661330223 0.2615436315536499 0.6314889788627625 -0.729911208152771 0.5555589199066162 0.8314462900161743 -0.0002136295661330223 0.3797418177127838 0.5683156847953796 -0.729911208152771 0.7070833444595337 0.7070833444595337 -0.0002136295661330223 0.4832911193370819 0.4833216369152069 -0.729911208152771 0.8314462900161743 0.5555589199066162 -0.0002136295661330223 0.5683156847953796 0.3797418177127838 -0.729911208152771 0.9238563179969788 0.382671594619751 -0.0002136295661330223 0.6314889788627625 0.2615436315536499 -0.729911208152771 0.9807733297348022 0.19507431983947754 -0.0002136295661330223 0.670369565486908 0.13333536684513092 -0.729911208152771 0.999969482421875 0.0 -0.0002136295661330223 0.6834925413131714 0.0 -0.729911208152771 0.9807733297348022 -0.19507431983947754 -0.0002136295661330223 0.670369565486908 -0.13333536684513092 -0.729911208152771 0.9238563179969788 -0.382671594619751 -0.0002136295661330223 0.9807733297348022 -0.19507431983947754 -0.0002136295661330223 0.6314889788627625 -0.2615436315536499 -0.729911208152771 0.8314462900161743 -0.5555589199066162 -0.0002136295661330223 0.5683156847953796 -0.3797418177127838 -0.729911208152771 0.7070833444595337 -0.7070833444595337 -0.0002136295661330223 0.4833216369152069 -0.4832911193370819 -0.729911208152771 0.5555589199066162 -0.8314462900161743 -0.0002136295661330223 0.3797418177127838 -0.5683156847953796 -0.729911208152771 0.382671594619751 -0.9238563179969788 -0.0002136295661330223 0.2615436315536499 -0.6314889788627625 -0.729911208152771 0.19507431983947754 -0.9807733297348022 -0.0002136295661330223 0.0 -0.6834925413131714 -0.729911208152771 0.0 -1.0 -0.0002136295661330223 0.0 -0.6834925413131714 -0.729911208152771 -0.19507431983947754 -0.9807733297348022 -0.0002136295661330223 0.0 -1.0 -0.0002136295661330223 -0.13333536684513092 -0.670369565486908 -0.729911208152771 -0.382671594619751 -0.9238563179969788 -0.0002136295661330223 -0.2615436315536499 -0.6314889788627625 -0.729911208152771 -0.5555589199066162 -0.8314462900161743 -0.0002136295661330223 -0.3797418177127838 -0.5683156847953796 -0.729911208152771 -0.7070833444595337 -0.7070833444595337 -0.0002136295661330223 -0.4833216369152069 -0.4832911193370819 -0.729911208152771 -0.8314462900161743 -0.5555589199066162 -0.0002136295661330223 -0.5683156847953796 -0.3797418177127838 -0.729911208152771 -0.9238563179969788 -0.382671594619751 -0.0002136295661330223 -0.6314889788627625 -0.2615436315536499 -0.729911208152771 -0.9807733297348022 -0.19507431983947754 -0.0002136295661330223 -0.670369565486908 -0.13333536684513092 -0.729911208152771 -0.999969482421875 0.0 -0.0002136295661330223 -0.6834925413131714 0.0 -0.729911208152771 -0.9807733297348022 0.19507431983947754 -0.0002136295661330223 -0.670369565486908 0.13333536684513092 -0.729911208152771 -0.9238563179969788 0.382671594619751 -0.0002136295661330223 -0.9807733297348022 0.19507431983947754 -0.0002136295661330223 -0.6314889788627625 0.2615436315536499 -0.729911208152771 -0.8314462900161743 0.5555589199066162 -0.0002136295661330223 -0.5683156847953796 0.3797418177127838 -0.729911208152771 -0.7070833444595337 0.7070833444595337 -0.0002136295661330223 -0.4833216369152069 0.4833216369152069 -0.729911208152771 -0.5555589199066162 0.8314462900161743 -0.0002136295661330223 -0.2615436315536499 0.6314889788627625 -0.729911208152771 -0.382671594619751 0.9238563179969788 -0.0002136295661330223 0.5146641731262207 0.5146946907043457 -0.6856898665428162 0.6052125692367554 0.4043702483177185 -0.6856898665428162 -0.19507431983947754 0.9807733297348022 -0.0002136295661330223 -0.13333536684513092 0.670369565486908 -0.729911208152771 0.6052125692367554 -0.4043702483177185 -0.6856898665428162 0.5146641731262207 -0.5146641731262207 0.6856898665428162 0.5146641731262207 -0.5146641731262207 -0.6856898665428162 0.4043702483177185 -0.6052125692367554 -0.6856898665428162 0.2785424292087555 -0.6724753379821777 -0.6856898665428162 -0.7138890027999878 -0.1420026272535324 -0.6856898665428162 0.13333536684513092 0.670369565486908 -0.729911208152771 0.0 0.7278664708137512 -0.6856898665428162 0.1420026272535324 0.7138890027999878 -0.6856898665428162 -0.1420026272535324 0.7138890027999878 -0.6856898665428162 0.6724753379821777 -0.2785424292087555 -0.6856898665428162 -0.2785424292087555 -0.6724753379821777 -0.6856898665428162 -0.4043702483177185 -0.6052125692367554 -0.6856898665428162 -0.5146641731262207 0.5146641731262207 -0.6856898665428162 0.6724753379821777 0.2785424292087555 -0.6856898665428162 0.13333536684513092 -0.670369565486908 -0.729911208152771 0.1420026272535324 -0.7138890027999878 -0.6856898665428162 -0.7278664708137512 0.0 -0.6856898665428162 0.2785424292087555 0.6724753379821777 -0.6856898665428162 -0.5146641731262207 -0.5146641731262207 -0.6856898665428162 -0.3797418177127838 0.5683156847953796 -0.729911208152771 -0.4043702483177185 0.6052125692367554 -0.6856898665428162 0.7138890027999878 0.1420026272535324 -0.6856898665428162 0.0 -0.7278664708137512 -0.6856898665428162 -0.670369565486908 0.13333536684513092 -0.729911208152771 -0.7138890027999878 0.1420026272535324 -0.6856898665428162 0.4043702483177185 0.6052125692367554 -0.6856898665428162 -0.6052125692367554 -0.4043702483177185 -0.6856898665428162 -0.2785424292087555 0.6724753379821777 -0.6856898665428162 0.7278664708137512 0.0 -0.6856898665428162 -0.1420026272535324 -0.7138890027999878 -0.6856898665428162 -0.6724753379821777 0.2785424292087555 -0.6856898665428162 -0.6724753379821777 -0.2785424292087555 -0.6856898665428162 0.670369565486908 -0.13333536684513092 -0.729911208152771 0.7138890027999878 -0.1420026272535324 -0.6856898665428162 -0.6052125692367554 0.4043702483177185 -0.6856898665428162 0.2785424292087555 -0.6724753379821777 0.6856898665428162 -0.13336588442325592 0.670491635799408 0.729819655418396 0.1420026272535324 -0.7138890027999878 0.6856898665428162 -0.7138890027999878 0.1420026272535324 -0.6856898665428162 -0.6724753379821777 0.2785424292087555 0.6856898665428162 0.4043702483177185 -0.6052125692367554 0.6856898665428162 -0.6052125692367554 0.4043702483177185 0.6856898665428162 0.1420026272535324 0.7138890027999878 0.6856898665428162 -0.5146641731262207 0.5146641731262207 0.6856898665428162 0.1420026272535324 0.7138890027999878 -0.6856898665428162 0.2785424292087555 0.6724753379821777 0.6856898665428162 -0.4043702483177185 0.6052125692367554 0.6856898665428162 0.0 -0.7278664708137512 0.6856898665428162 0.4043702483177185 0.6052125692367554 0.6856898665428162 -0.2785424292087555 0.6724753379821777 0.6856898665428162 0.0 -0.7278664708137512 -0.6856898665428162 -0.1420026272535324 -0.7138890027999878 0.6856898665428162 0.5146641731262207 0.5146946907043457 0.6856898665428162 -0.1420026272535324 0.7138890027999878 0.6856898665428162 -0.2785424292087555 -0.6724753379821777 0.6856898665428162 0.6052125692367554 0.4043702483177185 0.6856898665428162 0.0 0.7278664708137512 0.6856898665428162 -0.4043702483177185 -0.6052125692367554 0.6856898665428162 0.6724753379821777 0.2785424292087555 0.6856898665428162 -0.5146641731262207 -0.5146641731262207 0.6856898665428162 0.7138890027999878 0.1420026272535324 0.6856898665428162 -0.6052125692367554 -0.4043702483177185 0.6856898665428162 0.7278664708137512 0.0 0.6856898665428162 -0.6724753379821777 -0.2785424292087555 0.6856898665428162 0.7138890027999878 -0.1420026272535324 0.6856898665428162 -0.7138890027999878 -0.1419721096754074 0.6856898665428162 0.7138890027999878 -0.1420026272535324 -0.6856898665428162 0.6724753379821777 -0.2785424292087555 0.6856898665428162 -0.7278664708137512 0.0 0.6856898665428162 0.6052125692367554 -0.4043702483177185 0.6856898665428162 -0.7138890027999878 0.1420026272535324 0.6856898665428162 0.13336588442325592 0.670491635799408 0.729819655418396 0.382671594619751 0.9238563179969788 -6.103701889514923e-05 0.2616046667098999 0.6315805315971375 0.729819655418396 0.1420026272535324 0.7138890027999878 0.6856898665428162 -0.2616046667098999 -0.6315805315971375 0.729819655418396 0.3798028528690338 -0.5684072375297546 0.729819655418396 0.0 0.6836146116256714 0.729819655418396 -0.3798028528690338 -0.5684072375297546 0.729819655418396 0.2616046667098999 -0.6315805315971375 0.729819655418396 0.0 -0.7278664708137512 0.6856898665428162 0.13336588442325592 0.670491635799408 0.729819655418396 -0.4833826720714569 -0.4833826720714569 0.729819655418396 0.13336588442325592 -0.670491635799408 0.729819655418396 0.2616046667098999 0.6315805315971375 0.729819655418396 -0.5684072375297546 -0.3798028528690338 0.729819655418396 0.0 -0.6836146116256714 0.729819655418396 0.3798028528690338 0.5684072375297546 0.729819655418396 -0.6315805315971375 -0.2616046667098999 0.729819655418396 0.4833826720714569 0.4833826720714569 0.729819655418396 -0.670491635799408 -0.13336588442325592 0.729819655418396 0.5684072375297546 0.3798028528690338 0.729819655418396 -0.6836146116256714 0.0 0.729819655418396 0.6315805315971375 0.2616046667098999 0.729819655418396 -0.670491635799408 0.13336588442325592 0.729819655418396 0.670491635799408 0.13336588442325592 0.729819655418396 -0.670491635799408 0.13336588442325592 0.729819655418396 -0.6315805315971375 0.2616046667098999 0.729819655418396 0.6836146116256714 0.0 0.729819655418396 -0.5684072375297546 0.3798028528690338 0.729819655418396 0.670491635799408 -0.13336588442325592 0.729819655418396 -0.4833826720714569 0.4833826720714569 0.729819655418396 0.670491635799408 -0.13336588442325592 0.729819655418396 0.6315805315971375 -0.2616046667098999 0.729819655418396 -0.3798028528690338 0.5684072375297546 0.729819655418396 0.5684072375297546 -0.3798028528690338 0.729819655418396 -0.2616046667098999 0.6315805315971375 0.729819655418396 -0.13336588442325592 -0.670491635799408 0.729819655418396 0.4833826720714569 -0.4833826720714569 0.729819655418396 -0.4833826720714569 -0.4833826720714569 0.729819655418396 -0.8314462900161743 -0.5555589199066162 -6.103701889514923e-05 -0.5684072375297546 -0.3798028528690338 0.729819655418396 0.13336588442325592 -0.670491635799408 0.729819655418396 0.0 -0.999969482421875 -6.103701889514923e-05 0.0 -0.6836146116256714 0.729819655418396 0.5555589199066162 0.8314462900161743 -6.103701889514923e-05 0.3798028528690338 0.5684072375297546 0.729819655418396 -0.9238563179969788 -0.382671594619751 -6.103701889514923e-05 -0.6315805315971375 -0.2616046667098999 0.729819655418396 0.7070833444595337 0.7070833444595337 -6.103701889514923e-05 0.4833826720714569 0.4833826720714569 0.729819655418396 -0.670491635799408 -0.13336588442325592 0.729819655418396 -0.9807733297348022 -0.19507431983947754 -6.103701889514923e-05 0.8314462900161743 0.5555589199066162 -6.103701889514923e-05 0.5684072375297546 0.3798028528690338 0.729819655418396 -1.0 0.0 -6.103701889514923e-05 -0.6836146116256714 0.0 0.729819655418396 0.9238563179969788 0.382671594619751 -6.103701889514923e-05 0.6315805315971375 0.2616046667098999 0.729819655418396 -0.670491635799408 0.13336588442325592 0.729819655418396 -0.9807733297348022 0.19507431983947754 -6.103701889514923e-05 0.9807733297348022 0.19507431983947754 -6.103701889514923e-05 0.670491635799408 0.13336588442325592 0.729819655418396 -0.670491635799408 0.13336588442325592 0.729819655418396 -0.9238563179969788 0.382671594619751 -6.103701889514923e-05 -0.6315805315971375 0.2616046667098999 0.729819655418396 1.0 0.0 -6.103701889514923e-05 0.6836146116256714 0.0 0.729819655418396 -0.8314462900161743 0.5555589199066162 -6.103701889514923e-05 -0.5684072375297546 0.3798028528690338 0.729819655418396 0.6836146116256714 0.0 0.729819655418396 0.9807733297348022 -0.19507431983947754 -6.103701889514923e-05 0.670491635799408 -0.13336588442325592 0.729819655418396 -0.7070833444595337 0.7070833444595337 -6.103701889514923e-05 -0.4833826720714569 0.4833826720714569 0.729819655418396 0.9238563179969788 -0.382671594619751 -6.103701889514923e-05 0.6315805315971375 -0.2616046667098999 0.729819655418396 -0.5555589199066162 0.8314462900161743 -6.103701889514923e-05 -0.3798028528690338 0.5684072375297546 0.729819655418396 0.5684072375297546 -0.3798028528690338 0.729819655418396 0.8314462900161743 -0.5555589199066162 -6.103701889514923e-05 -0.382671594619751 0.9238563179969788 -6.103701889514923e-05 -0.2616046667098999 0.6315805315971375 0.729819655418396 -0.19507431983947754 -0.9807733297348022 -6.103701889514923e-05 -0.13336588442325592 -0.670491635799408 0.729819655418396 0.7070833444595337 -0.7070833444595337 -6.103701889514923e-05 0.4833826720714569 -0.4833826720714569 0.729819655418396 -0.19507431983947754 0.9807733297348022 -6.103701889514923e-05 -0.13336588442325592 0.670491635799408 0.729819655418396 -0.13336588442325592 -0.670491635799408 0.729819655418396 -0.382671594619751 -0.9238563179969788 -6.103701889514923e-05 -0.2616046667098999 -0.6315805315971375 0.729819655418396 0.5555589199066162 -0.8314462900161743 -6.103701889514923e-05 0.3798028528690338 -0.5684072375297546 0.729819655418396 0.0 1.0 -6.103701889514923e-05 0.0 0.6836146116256714 0.729819655418396 -0.5555589199066162 -0.8314462900161743 -6.103701889514923e-05 -0.3798028528690338 -0.5684072375297546 0.729819655418396 0.382671594619751 -0.9238563179969788 -6.103701889514923e-05 0.2616046667098999 -0.6315805315971375 0.729819655418396 0.0 0.6836146116256714 0.729819655418396 0.19507431983947754 0.9807733297348022 -6.103701889514923e-05 -0.7070833444595337 -0.7070833444595337 -6.103701889514923e-05 0.19507431983947754 -0.9807733297348022 -6.103701889514923e-05 -0.7138890027999878 0.1420026272535324 0.6856898665428162 0.7138890027999878 -0.1420026272535324 0.6856898665428162 -0.13336588442325592 -0.670491635799408 0.729819655418396 0.0 0.6836146116256714 0.729819655418396 -0.9807733297348022 0.19507431983947754 -6.103701889514923e-05 1.0 0.0 -6.103701889514923e-05 -0.19507431983947754 -0.9807733297348022 -6.103701889514923e-05 0.0 1.0 -6.103701889514923e-05</float_array>
				<technique_common>
				<accessor source="#id-mesh-7-normals-array" count="252" stride="3">
					<param name="X" type="float"/>
					<param name="Y" type="float"/>
					<param name="Z" type="float"/>
				</accessor>
				</technique_common>
			</source>
			<source id="id-mesh-7-texcoord-0">
				<float_array id="id-mesh-7-texcoord-0-array" count="504"> 0.8816304206848145 0.2245611548423767 0.8660748600959778 0.003987754695117474 0.8816304206848145 0.003987754695117474 0.8657081127166748 0.2245611548423767 0.8455442190170288 0.003987754695117474 0.8657081127166748 0.003987754695117474 0.8455442190170288 0.2245611548423767 0.8304338455200195 0.003987754695117474 0.8304338455200195 0.2245611548423767 0.812742292881012 0.003987754695117474 0.812742292881012 0.2245611548423767 0.8008167147636414 0.003987754695117474 0.8008167147636414 0.2245611548423767 0.7846416234970093 0.003987754695117474 0.7846416234970093 0.2245611548423767 0.7719777226448059 0.003987754695117474 0.7719777226448059 0.2245611548423767 0.7565590143203735 0.003987754695117474 0.7565590143203735 0.2245611548423767 0.7410035729408264 0.003987754695117474 0.7407720685005188 0.2245611548423767 0.7256618142127991 0.003987754695117474 0.7407720685005188 0.003987754695117474 0.7256618142127991 0.2245611548423767 0.7079702019691467 0.003987754695117474 0.7079702019691467 0.2245611548423767 0.6960446834564209 0.003987754695117474 0.6960446834564209 0.2245611548423767 0.6798694133758545 0.003987754695117474 0.6798694133758545 0.2245611548423767 0.667205810546875 0.003987754695117474 0.667205810546875 0.2245611548423767 0.6517868638038635 0.003987754695117474 0.6362314224243164 0.2245611548423767 0.6362314224243164 0.003987754695117474 0.6366597414016724 0.2245611548423767 0.6196877956390381 0.003987754695117474 0.6366597414016724 0.003987754695117474 0.6196877956390381 0.2245611548423767 0.6078102588653564 0.003987754695117474 0.6078102588653564 0.2245611548423767 0.5930386781692505 0.003987754695117474 0.5930386781692505 0.2245611548423767 0.5801903605461121 0.003987754695117474 0.5801903605461121 0.2245611548423767 0.567743182182312 0.003987754695117474 0.567743182182312 0.2245611548423767 0.5547710061073303 0.003987754695117474 0.5547710061073303 0.2245611548423767 0.5411238074302673 0.003987754695117474 0.5411238074302673 0.2245611548423767 0.5233322978019714 0.003987754695117474 0.5233322978019714 0.2245611548423767 0.5097780227661133 0.003987754695117474 0.9907795190811157 0.2245611548423767 0.9706156253814697 0.003987754695117474 0.9907795190811157 0.003987754695117474 0.9706156253814697 0.2245611548423767 0.9555054306983948 0.003987754695117474 0.9555054306983948 0.2245611548423767 0.9378136992454529 0.003987754695117474 0.9378136992454529 0.2245611548423767 0.9258882999420166 0.003987754695117474 0.9097130298614502 0.2245611548423767 0.9097130298614502 0.003987754695117474 0.812742292881012 0.24203091859817505 0.8008167147636414 0.24203091859817505 0.8970493078231812 0.003987754695117474 0.8970493078231812 0.2245611548423767 0.7079702019691467 0.24203091859817505 0.6960446834564209 0.29108303785324097 0.6960446834564209 0.24203091859817505 0.6798694133758545 0.24203091859817505 0.667205810546875 0.24203091859817505 0.5411238074302673 0.24203091859817505 0.8660748600959778 0.2245611548423767 0.8816304206848145 0.24203091859817505 0.8660748600959778 0.24203091859817505 0.8970493078231812 0.24203091859817505 0.7256618142127991 0.24203091859817505 0.6078102588653564 0.24203091859817505 0.5930386781692505 0.24203091859817505 0.9378136992454529 0.24203091859817505 0.7846416234970093 0.24203091859817505 0.6517868638038635 0.2245611548423767 0.6517868638038635 0.24203091859817505 0.5233322978019714 0.24203091859817505 0.8455442190170288 0.24203091859817505 0.5801903605461121 0.24203091859817505 0.9258882999420166 0.2245611548423767 0.9258882999420166 0.24203091859817505 0.7719777226448059 0.24203091859817505 0.6362314224243164 0.24203091859817505 0.5097780227661133 0.2245611548423767 0.5097780227661133 0.24203091859817505 0.8304338455200195 0.24203091859817505 0.567743182182312 0.24203091859817505 0.9097130298614502 0.24203091859817505 0.7565590143203735 0.24203091859817505 0.6196877956390381 0.24203091859817505 0.9706156253814697 0.24203091859817505 0.5547710061073303 0.24203091859817505 0.7410035729408264 0.2245611548423767 0.7410035729408264 0.24203091859817505 0.9555054306983948 0.24203091859817505 0.667205810546875 0.29108303785324097 0.6517868638038635 0.30607202649116516 0.6517868638038635 0.29108303785324097 0.9907795190811157 0.24203091859817505 0.9706156253814697 0.29108303785324097 0.6798694133758545 0.29108303785324097 0.9555054306983948 0.29108303785324097 0.8660748600959778 0.29108303785324097 0.9378136992454529 0.29108303785324097 0.8657081127166748 0.24203091859817505 0.8455442190170288 0.29108303785324097 0.9258882999420166 0.29108303785324097 0.6362314224243164 0.29108303785324097 0.8304338455200195 0.29108303785324097 0.9097130298614502 0.29108303785324097 0.6366597414016724 0.24203091859817505 0.6196877956390381 0.29108303785324097 0.812742292881012 0.29108303785324097 0.8970493078231812 0.29108303785324097 0.6078102588653564 0.29108303785324097 0.8008167147636414 0.29108303785324097 0.8816304206848145 0.29108303785324097 0.5930386781692505 0.29108303785324097 0.7846416234970093 0.29108303785324097 0.5801903605461121 0.29108303785324097 0.7719777226448059 0.29108303785324097 0.567743182182312 0.29108303785324097 0.7565590143203735 0.29108303785324097 0.5547710061073303 0.29108303785324097 0.7410035729408264 0.29108303785324097 0.5411238074302673 0.29108303785324097 0.7407720685005188 0.24203091859817505 0.7256618142127991 0.29108303785324097 0.5233322978019714 0.29108303785324097 0.7079702019691467 0.29108303785324097 0.5097780227661133 0.29108303785324097 0.5048614740371704 0.3655425012111664 0.9954261779785156 0.3708709180355072 0.5048619508743286 0.37087520956993103 0.8657081127166748 0.29108303785324097 0.8455442190170288 0.30607202649116516 0.9258882999420166 0.30607202649116516 0.6362314224243164 0.30607202649116516 0.8304338455200195 0.30607202649116516 0.9097130298614502 0.30607202649116516 0.6366597414016724 0.29108303785324097 0.6196877956390381 0.30607202649116516 0.812742292881012 0.30607202649116516 0.8970493078231812 0.30607202649116516 0.6078102588653564 0.30607202649116516 0.8008167147636414 0.30607202649116516 0.8816304206848145 0.30607202649116516 0.5930386781692505 0.30607202649116516 0.7846416234970093 0.30607202649116516 0.5801903605461121 0.30607202649116516 0.7719777226448059 0.30607202649116516 0.567743182182312 0.30607202649116516 0.7565590143203735 0.30607202649116516 0.5547710061073303 0.30607202649116516 0.7410035729408264 0.30607202649116516 0.5411238074302673 0.30607202649116516 0.7407720685005188 0.30607202649116516 0.7256618142127991 0.30607202649116516 0.5233322978019714 0.30607202649116516 0.7079702019691467 0.30607202649116516 0.5097780227661133 0.30607202649116516 0.6960446834564209 0.30607202649116516 0.9907795190811157 0.30607202649116516 0.9706156253814697 0.30607202649116516 0.6798694133758545 0.30607202649116516 0.9555054306983948 0.30607202649116516 0.667205810546875 0.30607202649116516 0.8660748600959778 0.30607202649116516 0.9378136992454529 0.30607202649116516 0.5048620700836182 0.4246174991130829 0.9954265356063843 0.4310310184955597 0.5048622488975525 0.4310310184955597 0.5048614740371704 0.35112321376800537 0.9954252243041992 0.35646307468414307 0.5048607587814331 0.3564557731151581 0.9954262971878052 0.3767983019351959 0.5048620700836182 0.3768005669116974 0.9954262971878052 0.4373234212398529 0.5048620700836182 0.437321275472641 0.9954265356063843 0.38309070467948914 0.5048622488975525 0.38309070467948914 0.5048618316650391 0.4432465136051178 0.9954261779785156 0.4432508051395416 0.9954265356063843 0.3895064890384674 0.5048620700836182 0.38950422406196594 0.9954257011413574 0.4485853910446167 0.5048612356185913 0.4485791027545929 0.9954261779785156 0.39579901099205017 0.5048619508743286 0.39579448103904724 0.5048605799674988 0.45311421155929565 0.9954249858856201 0.45312201976776123 0.9954257011413574 0.4017263948917389 0.5048614740371704 0.40171974897384644 0.5048609375953674 0.4531293213367462 0.9954260587692261 0.45845648646354675 0.5048614740371704 0.4584618806838989 0.9954249858856201 0.4070608615875244 0.5048607587814331 0.40705230832099915 0.9954262971878052 0.4643838703632355 0.5048618316650391 0.46438726782798767 0.5048600435256958 0.31041109561920166 0.9954252243041992 0.31493881344795227 0.5048607587814331 0.31494611501693726 0.9954265356063843 0.4706762433052063 0.5048620700836182 0.47067737579345703 0.9954260587692261 0.32027313113212585 0.5048614740371704 0.3202787935733795 0.9954265356063843 0.477091908454895 0.5048620700836182 0.4770909249782562 0.5048618316650391 0.3262040317058563 0.9954262971878052 0.3262006342411041 0.9954262971878052 0.4833844304084778 0.5048618316650391 0.4833811819553375 0.9954246282577515 0.36099982261657715 0.5048600435256958 0.3609907627105713 0.9954265356063843 0.3324931859970093 0.5048619508743286 0.33249431848526 0.9954260587692261 0.48931196331977844 0.5048614740371704 0.48930642008781433 0.5048605799674988 0.4070694148540497 0.9954257011413574 0.41239532828330994 0.5048612356185913 0.4124019742012024 0.9954265356063843 0.3389088213443756 0.5048619508743286 0.33890771865844727 0.9954252243041992 0.49464643001556396 0.5048609375953674 0.49463897943496704 0.9954261779785156 0.41832271218299866 0.5048618316650391 0.41832736134529114 0.9954262971878052 0.3452012240886688 0.5048618316650391 0.34519797563552856 0.5048607587814331 0.3610076308250427 0.9954257011413574 0.36553648114204407 0.9954262971878052 0.4246152341365814 0.9954260587692261 0.3511287569999695 0.9907795190811157 0.29108303785324097 0.7407720685005188 0.29108303785324097 0.8657081127166748 0.30607202649116516 0.6366597414016724 0.30607202649116516 0.9954252243041992 0.45312201976776123 0.9954246282577515 0.31040215492248535 0.9954249858856201 0.4070608615875244 0.9954249858856201 0.36099982261657715</float_array>
				<technique_common>
				<accessor source="#id-mesh-7-texcoord-0-array" count="252" stride="2">
					<param name="S" type="float"/>
					<param name="T" type="float"/>
				</accessor>
				</technique_common>
			</source>
			<vertices id="id-mesh-7-vertices">
				<input semantic="POSITION" source="#id-mesh-7-positions"/>
			</vertices>
			<triangles count="320" material="id-trimat-8">
				<input semantic="VERTEX" source="#id-mesh-7-vertices" offset="0"/>
				<input semantic="NORMAL" source="#id-mesh-7-normals" offset="0"/>
				<input semantic="TEXCOORD" source="#id-mesh-7-texcoord-0" offset="0" set="0"/>
				<p> 0 1 2 3 4 5 6 7 4 8 9 7 10 11 9 12 13 11 14 15 13 16 17 15 18 19 17 20 21 22 23 24 21 25 26 24 27 28 26 29 30 28 31 32 30 32 33 34 35 36 37 38 39 36 40 41 39 42 43 41 44 45 43 46 47 45 48 49 47 50 51 49 52 53 51 54 55 56 57 58 55 59 60 58 61 62 60 62 63 64 12 65 66 63 67 64 68 2 67 69 70 71 31 72 73 48 74 50 75 76 77 0 78 76 20 79 23 42 80 81 59 82 61 12 83 14 84 73 85 50 86 52 3 87 6 25 79 69 42 88 44 89 82 90 16 83 91 33 85 92 93 86 94 6 95 8 25 71 27 46 88 96 89 97 63 16 98 18 35 99 38 54 100 57 10 95 65 29 71 72 46 101 48 63 78 68 102 98 103 38 80 40 57 104 59 105 106 107 108 109 100 71 110 72 100 111 104 72 105 73 76 112 77 104 113 82 73 107 85 114 115 87 82 116 90 85 117 92 87 118 95 90 119 97 120 121 99 95 122 65 97 123 78 99 124 80 65 125 66 78 126 76 80 127 81 66 128 83 81 129 88 83 130 91 88 131 96 91 132 98 96 133 101 98 134 103 101 135 74 136 137 79 74 138 86 79 139 69 86 140 94 141 142 143 144 145 115 113 146 116 107 147 117 118 145 148 119 146 149 150 151 121 118 152 122 123 149 153 124 151 154 122 155 125 123 156 126 124 157 127 125 158 128 127 159 129 128 160 130 129 161 131 132 160 162 133 161 163 132 164 134 135 163 165 137 166 167 138 165 168 137 169 139 138 170 140 70 169 171 109 172 173 70 174 110 111 173 175 110 176 105 126 177 112 113 175 178 179 180 181 182 183 184 143 185 186 181 187 188 186 189 190 191 187 192 190 193 194 191 195 196 194 197 198 199 195 200 198 201 202 203 204 205 202 206 207 205 208 209 210 211 212 209 213 214 212 215 216 214 217 218 219 215 220 218 221 222 184 223 224 219 225 226 222 227 228 229 230 231 226 232 233 228 234 235 231 236 237 233 238 239 240 241 141 237 242 179 182 238 243 0 75 1 3 6 4 6 8 7 8 10 9 10 12 11 12 14 13 14 16 15 16 18 17 18 102 19 20 23 21 23 25 24 25 27 26 27 29 28 29 31 30 31 84 32 32 84 33 35 38 36 38 40 39 40 42 41 42 44 43 44 46 45 46 48 47 48 50 49 50 52 51 52 93 53 54 57 55 57 59 58 59 61 60 61 89 62 62 89 63 12 10 65 63 68 67 68 0 2 69 139 70 31 29 72 48 101 74 75 0 76 0 68 78 20 136 79 42 40 80 59 104 82 12 66 83 84 31 73 50 74 86 3 114 87 25 23 79 42 81 88 89 61 82 16 14 83 33 84 85 93 52 86 6 87 95 25 69 71 46 44 88 89 90 97 16 91 98 35 120 99 54 108 100 10 8 95 29 27 71 46 96 101 63 97 78 102 18 98 38 99 80 57 100 104 105 176 106 108 244 109 71 70 110 100 109 111 72 110 105 76 126 112 104 111 113 73 105 107 114 144 115 82 113 116 85 107 117 87 115 118 90 116 119 120 150 121 95 118 122 97 119 123 99 121 124 65 122 125 78 123 126 80 124 127 66 125 128 81 127 129 83 128 130 88 129 131 91 130 132 96 131 133 98 132 134 101 133 135 136 245 137 74 135 138 79 137 139 86 138 140 141 241 142 144 246 145 113 178 146 107 106 147 118 115 145 119 116 146 150 247 151 118 148 152 123 119 149 124 121 151 122 152 155 123 153 156 124 154 157 125 155 158 127 157 159 128 158 160 129 159 161 132 130 160 133 131 161 132 162 164 135 133 163 137 245 166 138 135 165 137 167 169 138 168 170 70 139 169 109 244 172 70 171 174 111 109 173 110 174 176 126 156 177 113 111 175 179 242 180 182 243 183 143 142 185 181 180 187 186 185 189 191 188 187 190 189 193 191 192 195 194 193 197 199 196 195 198 197 201 203 248 204 202 201 206 205 204 208 210 249 211 209 208 213 212 211 215 214 213 217 219 216 215 218 217 221 184 183 223 219 220 225 222 221 227 229 250 230 226 225 232 228 227 234 231 230 236 233 232 238 240 251 241 237 236 242 182 239 238 </p>
			</triangles>
		</mesh>
	</geometry>
	<geometry id="id-mesh-9" name="Cylinder">
		<mesh>
			<source id="id-mesh-9-positions">
				<float_array id="id-mesh-9-positions-array" count="696"> -0.09754440933465958 0.990392804145813 -0.064905546605587 0.0 1.0 -0.064905546605587 0.0 1.0 -1.0 0.4691268503665924 0.8776745796203613 -0.064905546605587 0.5555702447891235 0.8314695954322815 -0.064905546605587 0.5555702447891235 0.8314695954322815 -1.0 0.6313384771347046 0.769288182258606 -0.064905546605587 0.7071067690849304 0.7071067690849304 -0.064905546605587 0.7071067690849304 0.7071067690849304 -1.0 0.769288182258606 0.6313384771347046 -0.064905546605587 0.8314696550369263 0.5555701851844788 -0.064905546605587 0.8314696550369263 0.5555701851844788 -1.0 0.8776745796203613 0.46912682056427 -0.06490553915500641 0.9238795042037964 0.3826834261417389 -0.064905546605587 0.9238795042037964 0.3826834261417389 -1.0 0.9523323774337769 0.2888869047164917 -0.064905546605587 0.9807852506637573 0.19509035348892212 -0.064905546605587 0.9807852506637573 0.19509035348892212 -1.0 0.9903926253318787 0.09754521399736404 -0.064905546605587 1.0 7.549790126404332e-08 -0.064905546605587 1.0 7.549790126404332e-08 -1.0 0.9903926849365234 -0.0975450649857521 -0.064905546605587 0.9807853102684021 -0.19509020447731018 -0.064905546605587 0.9807853102684021 -0.19509020447731018 -1.0 0.9523324370384216 -0.2888867259025574 -0.064905546605587 0.9238795638084412 -0.38268327713012695 -0.064905546605587 0.9238795638084412 -0.38268327713012695 -1.0 0.8776745796203613 -0.46912673115730286 -0.064905546605587 0.8314696550369263 -0.5555701851844788 -0.064905546605587 0.8314696550369263 -0.5555701851844788 -1.0 0.769288182258606 -0.6313384771347046 -0.064905546605587 0.7071067690849304 -0.7071067690849304 -0.064905546605587 0.7071067690849304 -0.7071067690849304 -1.0 0.6313384771347046 -0.769288182258606 -0.064905546605587 0.5555701851844788 -0.8314696550369263 -0.064905546605587 0.5555701851844788 -0.8314696550369263 -1.0 0.46912673115730286 -0.8776746392250061 -0.064905546605587 0.38268327713012695 -0.9238796234130859 -0.064905546605587 0.38268327713012695 -0.9238796234130859 -1.0 0.2888866662979126 -0.9523324966430664 -0.064905546605587 0.19509008526802063 -0.9807853102684021 -0.064905546605587 0.19509008526802063 -0.9807853102684021 -1.0 0.09754487872123718 -0.9903926849365234 -0.064905546605587 -3.2584136988589307e-07 -1.0 -0.064905546605587 -3.2584136988589307e-07 -1.0 -1.0 -0.09754552692174911 -0.9903925657272339 -0.064905546605587 -0.19509072601795197 -0.9807851910591125 -0.064905546605587 -0.19509072601795197 -0.9807851910591125 -1.0 -0.28888729214668274 -0.9523322582244873 -0.064905546605587 -0.3826838731765747 -0.9238793253898621 -0.064905546605587 -0.3826838731765747 -0.9238793253898621 -1.0 -0.4691272974014282 -0.8776743412017822 -0.06490553915500641 -0.5555707216262817 -0.8314692974090576 -0.064905546605587 -0.5555707216262817 -0.8314692974090576 -1.0 -0.6313389539718628 -0.7692878246307373 -0.064905546605587 -0.7071072459220886 -0.707106351852417 -0.064905546605587 -0.7071072459220886 -0.707106351852417 -1.0 -0.7692886590957642 -0.6313380002975464 -0.06490553915500641 -0.8314700126647949 -0.5555696487426758 -0.064905546605587 -0.8314700126647949 -0.5555696487426758 -1.0 -0.87767493724823 -0.4691261649131775 -0.064905546605587 -0.923879861831665 -0.3826826810836792 -0.064905546605587 -0.923879861831665 -0.3826826810836792 -1.0 -0.952332615852356 -0.28888607025146484 -0.064905546605587 -0.9807854294776917 -0.1950894594192505 -0.064905546605587 -0.9807854294776917 -0.1950894594192505 -1.0 -0.9903926849365234 -0.09754424542188644 -0.064905546605587 -1.0 9.655991561885457e-07 -0.064905546605587 -1.0 9.655991561885457e-07 -1.0 -0.9903925657272339 0.09754616022109985 -0.064905546605587 -0.980785071849823 0.1950913518667221 -0.064905546605587 -0.980785071849823 0.1950913518667221 -1.0 -0.952332079410553 0.2888879179954529 -0.064905546605587 -0.923879086971283 0.38268446922302246 -0.064905546605587 -0.923879086971283 0.38268446922302246 -1.0 -0.8776739835739136 0.4691278636455536 -0.064905546605587 -0.831468939781189 0.5555712580680847 -0.064905546605587 -0.831468939781189 0.5555712580680847 -1.0 -0.7692874073982239 0.631339430809021 -0.064905546605587 -0.7071058750152588 0.707107663154602 -0.064905546605587 -0.7071058750152588 0.707107663154602 -1.0 -0.6313375234603882 0.7692890167236328 -0.06490553915500641 -0.5555691123008728 0.8314703702926636 -0.064905546605587 -0.5555691123008728 0.8314703702926636 -1.0 -0.4691255986690521 0.8776752352714539 -0.064905546605587 -0.38268208503723145 0.9238801002502441 -0.064905546605587 -0.38268208503723145 0.9238801002502441 -1.0 -0.2888854444026947 0.9523328542709351 -0.064905546605587 -0.19508881866931915 0.9807855486869812 -0.064905546605587 -0.19508881866931915 0.9807855486869812 -1.0 0.09754516184329987 0.9903926253318787 -0.064905546605587 0.19509032368659973 0.9807852506637573 -0.064905546605587 0.19509032368659973 0.9807852506637573 -1.0 0.2888869047164917 0.9523323774337769 -0.064905546605587 0.3826834559440613 0.9238795042037964 -0.064905546605587 0.3826834559440613 0.9238795042037964 -1.0 0.09754516184329987 0.9903926253318787 -0.064905546605587 -6.612390279769897e-08 0.9377806782722473 -0.002985835075378418 0.0914759561419487 0.9287710785865784 -0.002985835075378418 0.2888869047164917 0.9523323774337769 -0.064905546605587 0.18295198678970337 0.9197614789009094 -0.002985835075378418 0.2709125578403473 0.8930789232254028 -0.002985835075378418 0.4691268503665924 0.8776745796203613 -0.064905546605587 0.35887300968170166 0.866396427154541 -0.002985835075378418 0.43993812799453735 0.823066234588623 -0.002985835075378418 0.6313384771347046 0.769288182258606 -0.064905546605587 0.5210029482841492 0.7797362208366394 -0.002985835075378418 0.5920569896697998 0.7214236259460449 -0.002985835075378418 0.769288182258606 0.6313384771347046 -0.064905546605587 0.6631110906600952 0.6631110310554504 -0.002985835075378418 0.7214235663414001 0.5920570492744446 -0.002985835075378418 0.8776745796203613 0.46912682056427 -0.06490553915500641 0.7797361016273499 0.5210030674934387 -0.002985835075378418 0.8230662941932678 0.4399380683898926 -0.002985835075378418 0.9523323774337769 0.2888869047164917 -0.064905546605587 0.866396427154541 0.3588729798793793 -0.002985835075378418 0.8930789232254028 0.2709125578403473 -0.002985835075378418 0.9903926253318787 0.09754521399736404 -0.064905546605587 0.9197614789009094 0.18295201659202576 -0.002985835075378418 0.9287710785865784 0.09147600829601288 -0.002985835075378418 0.9903926849365234 -0.0975450649857521 -0.064905546605587 0.9377806782722473 3.818422555923462e-08 -0.002985835075378418 0.9287711381912231 -0.09147589653730392 -0.002985835075378418 0.9523324370384216 -0.2888867259025574 -0.064905546605587 0.9197615385055542 -0.18295186758041382 -0.002985835075378418 0.8930789828300476 -0.27091237902641296 -0.002985835075378418 0.8776745796203613 -0.46912673115730286 -0.064905546605587 0.866396427154541 -0.35887300968170166 -0.002985835075378418 0.8230662941932678 -0.4399379789829254 -0.002985835075378418 0.769288182258606 -0.6313384771347046 -0.064905546605587 0.7797361612319946 -0.521003007888794 -0.002985835075378418 0.7214236259460449 -0.5920569896697998 -0.002985835075378418 0.6313384771347046 -0.769288182258606 -0.064905546605587 0.6631110310554504 -0.6631110906600952 -0.002985835075378418 0.5920570492744446 -0.7214235663414001 -0.002985835075378418 0.46912673115730286 -0.8776746392250061 -0.064905546605587 0.5210028886795044 -0.7797362804412842 -0.002985835075378418 0.4399379789829254 -0.8230663537979126 -0.002985835075378418 0.2888866662979126 -0.9523324966430664 -0.064905546605587 0.35887300968170166 -0.8663964867591858 -0.002985835075378418 0.2709123194217682 -0.8930790424346924 -0.002985835075378418 0.09754487872123718 -0.9903926849365234 -0.064905546605587 0.18295153975486755 -0.9197615385055542 -0.002985835075378418 0.09147568047046661 -0.9287711381912231 -0.002985835075378418 -0.09754552692174911 -0.9903925657272339 -0.064905546605587 -2.50060111284256e-07 -0.9377806782722473 -0.002985835075378418 -0.09147629141807556 -0.9287710189819336 -0.002985835075378418 -0.28888729214668274 -0.9523322582244873 -0.064905546605587 -0.18295232951641083 -0.9197614192962646 -0.002985835075378418 -0.27091291546821594 -0.8930788040161133 -0.002985835075378418 -0.4691272974014282 -0.8776743412017822 -0.06490553915500641 -0.3588736355304718 -0.8663961887359619 -0.002985835075378418 -0.4399385452270508 -0.8230660557746887 -0.002985835075378418 -0.6313389539718628 -0.7692878246307373 -0.064905546605587 -0.5210034847259521 -0.7797358632087708 -0.002985835075378418 -0.592057466506958 -0.7214232683181763 -0.002985835075378418 -0.7692886590957642 -0.6313380002975464 -0.06490553915500641 -0.6631115078926086 -0.6631106734275818 -0.002985835075378418 -0.7214240431785583 -0.5920565724372864 -0.002985835075378418 -0.87767493724823 -0.4691261649131775 -0.064905546605587 -0.7797365188598633 -0.521002471446991 -0.002985835075378418 -0.8230665922164917 -0.43993744254112244 -0.002985835075378418 -0.952332615852356 -0.28888607025146484 -0.064905546605587 -0.8663966655731201 -0.35887250304222107 -0.002985835075378418 -0.8930791020393372 -0.2709118127822876 -0.002985835075378418 -0.9903926849365234 -0.09754424542188644 -0.064905546605587 -0.9197616577148438 -0.1829509139060974 -0.002985835075378418 -0.9287711381912231 -0.09147512167692184 -0.002985835075378418 -0.9903925657272339 0.09754616022109985 -0.064905546605587 -0.9377806782722473 8.89413058757782e-07 -0.002985835075378418 -0.9287710189819336 0.0914769247174263 -0.002985835075378418 -0.952332079410553 0.2888879179954529 -0.064905546605587 -0.9197613000869751 0.1829528957605362 -0.002985835075378418 -0.893078625202179 0.2709135115146637 -0.002985835075378418 -0.8776739835739136 0.4691278636455536 -0.064905546605587 -0.8663959503173828 0.3588740825653076 -0.002985835075378418 -0.8230656981468201 0.43993905186653137 -0.002985835075378418 -0.7692874073982239 0.631339430809021 -0.064905546605587 -0.7797354459762573 0.5210040807723999 -0.002985835075378418 -0.7214229106903076 0.5920578837394714 -0.002985835075378418 -0.6313375234603882 0.7692890167236328 -0.06490553915500641 -0.6631102561950684 0.6631118655204773 -0.002985835075378418 -0.5920560956001282 0.721424400806427 -0.002985835075378418 -0.4691255986690521 0.8776752352714539 -0.064905546605587 -0.5210021138191223 0.7797367572784424 -0.002985835075378418 -0.43993693590164185 0.8230668902397156 -0.002985835075378418 -0.2888854444026947 0.9523328542709351 -0.064905546605587 -0.3588719964027405 0.8663968443870544 -0.002985835075378418 -0.27091118693351746 0.8930793404579163 -0.002985835075378418 -0.09754440933465958 0.990392804145813 -0.064905546605587 -0.18295042216777802 0.9197617769241333 -0.002985835075378418 -0.0914752334356308 0.9287712574005127 -0.002985835075378418 0.19509032368659973 0.9807852506637573 -0.064905546605587 0.3826834559440613 0.9238795042037964 -0.064905546605587 0.5555702447891235 0.8314695954322815 -0.064905546605587 0.7071067690849304 0.7071067690849304 -0.064905546605587 0.8314696550369263 0.5555701851844788 -0.064905546605587 0.9238795042037964 0.3826834261417389 -0.064905546605587 0.9807852506637573 0.19509035348892212 -0.064905546605587 1.0 7.549790126404332e-08 -0.064905546605587 0.9807853102684021 -0.19509020447731018 -0.064905546605587 0.9238795638084412 -0.38268327713012695 -0.064905546605587 0.8314696550369263 -0.5555701851844788 -0.064905546605587 0.7071067690849304 -0.7071067690849304 -0.064905546605587 0.5555701851844788 -0.8314696550369263 -0.064905546605587 0.38268327713012695 -0.9238796234130859 -0.064905546605587 0.19509008526802063 -0.9807853102684021 -0.064905546605587 -3.2584136988589307e-07 -1.0 -0.064905546605587 -0.19509072601795197 -0.9807851910591125 -0.064905546605587 -0.3826838731765747 -0.9238793253898621 -0.064905546605587 -0.5555707216262817 -0.8314692974090576 -0.064905546605587 -0.7071072459220886 -0.707106351852417 -0.064905546605587 -0.8314700126647949 -0.5555696487426758 -0.064905546605587 -0.923879861831665 -0.3826826810836792 -0.064905546605587 -0.9807854294776917 -0.1950894594192505 -0.064905546605587 -1.0 9.655991561885457e-07 -0.064905546605587 -0.980785071849823 0.1950913518667221 -0.064905546605587 -0.923879086971283 0.38268446922302246 -0.064905546605587 -0.831468939781189 0.5555712580680847 -0.064905546605587 -0.7071058750152588 0.707107663154602 -0.064905546605587 -0.5555691123008728 0.8314703702926636 -0.064905546605587 -0.38268208503723145 0.9238801002502441 -0.064905546605587 -0.19508881866931915 0.9807855486869812 -0.064905546605587 0.0 1.0 -0.064905546605587 0.7071067690849304 0.7071067690849304 -1.0 0.7071067690849304 0.7071067690849304 -0.064905546605587 0.8314696550369263 -0.5555701851844788 -1.0 0.8314696550369263 -0.5555701851844788 -0.064905546605587 -0.19509072601795197 -0.9807851910591125 -1.0 -0.19509072601795197 -0.9807851910591125 -0.064905546605587 -0.831468939781189 0.5555712580680847 -1.0 -0.831468939781189 0.5555712580680847 -0.064905546605587</float_array>
				<technique_common>
				<accessor source="#id-mesh-9-positions-array" count="232" stride="3">
					<param name="X" type="float"/>
					<param name="Y" type="float"/>
					<param name="Z" type="float"/>
				</accessor>
				</technique_common>
			</source>
			<source id="id-mesh-9-normals">
				<float_array id="id-mesh-9-normals-array" count="696"> -0.09054841846227646 0.9194006323814392 0.382671594619751 0.0 0.9267860651016235 0.37553027272224426 0.0 0.999969482421875 0.0 0.4354991316795349 0.8147831559181213 0.382671594619751 0.5148777961730957 0.7705923914909363 0.37553027272224426 0.5555589199066162 0.8314462900161743 0.0 0.5860774517059326 0.7141636610031128 0.382671594619751 0.6553239822387695 0.6553239822387695 0.37553027272224426 0.7070833444595337 0.7070833444595337 0.0 0.7141636610031128 0.5860774517059326 0.382671594619751 0.7705923914909363 0.5148777961730957 0.37553027272224426 0.8314462900161743 0.5555589199066162 0.0 0.8147831559181213 0.4354991316795349 0.382671594619751 0.8562272787094116 0.35465559363365173 0.37553027272224426 0.9238563179969788 0.382671594619751 0.0 0.8840907216072083 0.2681661546230316 0.382671594619751 0.9089632630348206 0.18079164624214172 0.37553027272224426 0.9807733297348022 0.19507431983947754 0.0 0.9194006323814392 0.09054841846227646 0.382671594619751 0.9267860651016235 0.0 0.37553027272224426 0.999969482421875 0.0 0.0 0.9194006323814392 -0.09054841846227646 0.382671594619751 0.9089632630348206 -0.18079164624214172 0.37553027272224426 0.9807733297348022 -0.19507431983947754 0.0 0.8840907216072083 -0.2681661546230316 0.382671594619751 0.8562272787094116 -0.35465559363365173 0.37553027272224426 0.9238563179969788 -0.382671594619751 0.0 0.8147831559181213 -0.4354991316795349 0.382671594619751 0.7705923914909363 -0.5148777961730957 0.37553027272224426 0.8314462900161743 -0.5555589199066162 0.0 0.7141636610031128 -0.5860774517059326 0.382671594619751 0.6553239822387695 -0.6553239822387695 0.37553027272224426 0.7070833444595337 -0.7070833444595337 0.0 0.5860774517059326 -0.7141636610031128 0.382671594619751 0.5148777961730957 -0.7705923914909363 0.37553027272224426 0.5555589199066162 -0.8314462900161743 0.0 0.4354991316795349 -0.8147831559181213 0.382671594619751 0.35465559363365173 -0.8562272787094116 0.37553027272224426 0.382671594619751 -0.9238563179969788 0.0 0.2681661546230316 -0.8840907216072083 0.382671594619751 0.18079164624214172 -0.9089632630348206 0.37553027272224426 0.19507431983947754 -0.9807733297348022 0.0 0.09054841846227646 -0.9194006323814392 0.382671594619751 0.0 -0.9267860651016235 0.37553027272224426 0.0 -0.999969482421875 0.0 -0.09054841846227646 -0.9194006323814392 0.382671594619751 -0.18079164624214172 -0.9089632630348206 0.37553027272224426 -0.19507431983947754 -0.9807733297348022 0.0 -0.2681661546230316 -0.8840907216072083 0.382671594619751 -0.35465559363365173 -0.8562272787094116 0.37553027272224426 -0.382671594619751 -0.9238563179969788 0.0 -0.4354991316795349 -0.8147831559181213 0.382671594619751 -0.5148777961730957 -0.7705923914909363 0.37553027272224426 -0.5555589199066162 -0.8314462900161743 0.0 -0.5860774517059326 -0.7141636610031128 0.382671594619751 -0.6553239822387695 -0.6553239822387695 0.37556079030036926 -0.7070833444595337 -0.7070833444595337 0.0 -0.7141636610031128 -0.5860774517059326 0.382671594619751 -0.7705923914909363 -0.5148777961730957 0.37553027272224426 -0.8314462900161743 -0.5555589199066162 0.0 -0.8147831559181213 -0.4354991316795349 0.382671594619751 -0.8562272787094116 -0.35465559363365173 0.37553027272224426 -0.9238563179969788 -0.382671594619751 0.0 -0.8840907216072083 -0.2681661546230316 0.382671594619751 -0.9089632630348206 -0.18079164624214172 0.37553027272224426 -0.9807733297348022 -0.19507431983947754 0.0 -0.9194006323814392 -0.09054841846227646 0.382671594619751 -0.9267860651016235 0.0 0.37553027272224426 -0.999969482421875 0.0 0.0 -0.9194006323814392 0.09054841846227646 0.382671594619751 -0.9089632630348206 0.18079164624214172 0.37553027272224426 -0.9807733297348022 0.19507431983947754 0.0 -0.8840907216072083 0.2681661546230316 0.382671594619751 -0.8562272787094116 0.35465559363365173 0.37553027272224426 -0.9238563179969788 0.382671594619751 0.0 -0.8147831559181213 0.4354991316795349 0.382671594619751 -0.7705923914909363 0.5148777961730957 0.37553027272224426 -0.8314462900161743 0.5555589199066162 0.0 -0.7141636610031128 0.5860774517059326 0.382671594619751 -0.6553239822387695 0.6553239822387695 0.37553027272224426 -0.7070833444595337 0.7070833444595337 0.0 -0.5860774517059326 0.7141636610031128 0.382671594619751 -0.5148777961730957 0.7705923914909363 0.37553027272224426 -0.5555589199066162 0.8314462900161743 0.0 -0.4354991316795349 0.8147831559181213 0.382671594619751 -0.35465559363365173 0.8562272787094116 0.37556079030036926 -0.382671594619751 0.9238563179969788 0.0 -0.2681661546230316 0.8840907216072083 0.382671594619751 -0.18079164624214172 0.9089632630348206 0.37553027272224426 -0.19507431983947754 0.9807733297348022 0.0 0.09054841846227646 0.9194006323814392 0.382671594619751 0.18079164624214172 0.9089632630348206 0.37553027272224426 0.19507431983947754 0.9807733297348022 0.0 0.2681661546230316 0.8840907216072083 0.382671594619751 0.35465559363365173 0.8562272787094116 0.37553027272224426 0.382671594619751 0.9238563179969788 0.0 0.09054841846227646 0.9194006323814392 0.382671594619751 0.0 0.40156254172325134 0.9157994389533997 0.03750724717974663 0.3808404803276062 0.9238563179969788 0.2681661546230316 0.8840907216072083 0.382671594619751 0.07834101468324661 0.39384135603904724 0.9157994389533997 0.1110568568110466 0.3661915957927704 0.9238563179969788 0.4354991316795349 0.8147831559181213 0.382671594619751 0.15366069972515106 0.3709830045700073 0.9157994389533997 0.18039490282535553 0.33747369050979614 0.9238563179969788 0.5860774517059326 0.7141636610031128 0.382671594619751 0.2230903059244156 0.3338724970817566 0.9157994389533997 0.24274422228336334 0.29581591486930847 0.9238563179969788 0.7141636610031128 0.5860774517059326 0.382671594619751 0.2839442193508148 0.2839442193508148 0.9157994389533997 0.29581591486930847 0.24274422228336334 0.9238563179969788 0.8147831559181213 0.4354991316795349 0.382671594619751 0.3338724970817566 0.2230903059244156 0.9157994389533997 0.33747369050979614 0.18039490282535553 0.9238563179969788 0.8840907216072083 0.2681661546230316 0.382671594619751 0.3709830045700073 0.15366069972515106 0.9157994389533997 0.3661915957927704 0.1110568568110466 0.9238563179969788 0.9194006323814392 0.09054841846227646 0.382671594619751 0.39384135603904724 0.07834101468324661 0.9157994389533997 0.3808404803276062 0.03750724717974663 0.9238563179969788 0.9194006323814392 -0.09054841846227646 0.382671594619751 0.40156254172325134 0.0 0.9157994389533997 0.3808404803276062 -0.03750724717974663 0.9238563179969788 0.8840907216072083 -0.2681661546230316 0.382671594619751 0.39384135603904724 -0.07834101468324661 0.9157994389533997 0.3661915957927704 -0.1110568568110466 0.9238563179969788 0.8147831559181213 -0.4354991316795349 0.382671594619751 0.3709830045700073 -0.15366069972515106 0.9157994389533997 0.33747369050979614 -0.18039490282535553 0.9238563179969788 0.7141636610031128 -0.5860774517059326 0.382671594619751 0.3338724970817566 -0.2230903059244156 0.9157994389533997 0.29581591486930847 -0.24274422228336334 0.9238563179969788 0.5860774517059326 -0.7141636610031128 0.382671594619751 0.2839442193508148 -0.2839442193508148 0.9157994389533997 0.24274422228336334 -0.29581591486930847 0.9238563179969788 0.4354991316795349 -0.8147831559181213 0.382671594619751 0.2230903059244156 -0.3338724970817566 0.9157994389533997 0.18039490282535553 -0.33747369050979614 0.9238563179969788 0.2681661546230316 -0.8840907216072083 0.382671594619751 0.15366069972515106 -0.3709830045700073 0.9157994389533997 0.1110568568110466 -0.3661915957927704 0.9238563179969788 0.09054841846227646 -0.9194006323814392 0.382671594619751 0.07834101468324661 -0.39384135603904724 0.9157994389533997 0.03750724717974663 -0.3808404803276062 0.9238563179969788 -0.09054841846227646 -0.9194006323814392 0.382671594619751 0.0 -0.40156254172325134 0.9157994389533997 -0.03750724717974663 -0.3808404803276062 0.9238563179969788 -0.2681661546230316 -0.8840907216072083 0.382671594619751 -0.07834101468324661 -0.39384135603904724 0.9157994389533997 -0.1110568568110466 -0.3661915957927704 0.9238563179969788 -0.4354991316795349 -0.8147831559181213 0.382671594619751 -0.15366069972515106 -0.3709830045700073 0.9157994389533997 -0.18039490282535553 -0.33747369050979614 0.9238563179969788 -0.5860774517059326 -0.7141636610031128 0.382671594619751 -0.2230903059244156 -0.3338724970817566 0.9157994389533997 -0.24274422228336334 -0.29581591486930847 0.9238563179969788 -0.7141636610031128 -0.5860774517059326 0.382671594619751 -0.2839442193508148 -0.2839442193508148 0.9157994389533997 -0.29581591486930847 -0.24274422228336334 0.9238563179969788 -0.8147831559181213 -0.4354991316795349 0.382671594619751 -0.3338724970817566 -0.2230903059244156 0.9157994389533997 -0.33747369050979614 -0.18039490282535553 0.9238563179969788 -0.8840907216072083 -0.2681661546230316 0.382671594619751 -0.3709830045700073 -0.15366069972515106 0.9157994389533997 -0.3661915957927704 -0.1110568568110466 0.9238563179969788 -0.9194006323814392 -0.09054841846227646 0.382671594619751 -0.39384135603904724 -0.07834101468324661 0.9157994389533997 -0.3808404803276062 -0.03750724717974663 0.9238563179969788 -0.9194006323814392 0.09054841846227646 0.382671594619751 -0.40156254172325134 0.0 0.9157994389533997 -0.3808404803276062 0.03750724717974663 0.9238563179969788 -0.8840907216072083 0.2681661546230316 0.382671594619751 -0.39384135603904724 0.07834101468324661 0.9157994389533997 -0.3661915957927704 0.1110873743891716 0.9238563179969788 -0.8147831559181213 0.4354991316795349 0.382671594619751 -0.3709830045700073 0.15366069972515106 0.9157994389533997 -0.33747369050979614 0.18039490282535553 0.9238563179969788 -0.7141636610031128 0.5860774517059326 0.382671594619751 -0.3338724970817566 0.2230903059244156 0.9157994389533997 -0.29581591486930847 0.24274422228336334 0.9238563179969788 -0.5860774517059326 0.7141636610031128 0.382671594619751 -0.2839442193508148 0.2839442193508148 0.9157994389533997 -0.24274422228336334 0.29581591486930847 0.9238563179969788 -0.4354991316795349 0.8147831559181213 0.382671594619751 -0.2230903059244156 0.3338724970817566 0.9157994389533997 -0.18039490282535553 0.33747369050979614 0.9238563179969788 -0.2681661546230316 0.8840907216072083 0.382671594619751 -0.15366069972515106 0.3709830045700073 0.9157994389533997 -0.1110568568110466 0.3661915957927704 0.9238563179969788 -0.09054841846227646 0.9194006323814392 0.382671594619751 -0.07834101468324661 0.39384135603904724 0.9157994389533997 -0.03750724717974663 0.3808099627494812 0.9238563179969788 0.18079164624214172 0.9089632630348206 0.37553027272224426 0.35465559363365173 0.8562272787094116 0.37553027272224426 0.5148777961730957 0.7705923914909363 0.37553027272224426 0.6553239822387695 0.6553239822387695 0.37553027272224426 0.7705923914909363 0.5148777961730957 0.37553027272224426 0.8562272787094116 0.35465559363365173 0.37553027272224426 0.9089632630348206 0.18079164624214172 0.37553027272224426 0.9267860651016235 0.0 0.37553027272224426 0.9089632630348206 -0.18079164624214172 0.37553027272224426 0.8562272787094116 -0.35465559363365173 0.37553027272224426 0.7705923914909363 -0.5148777961730957 0.37553027272224426 0.6553239822387695 -0.6553239822387695 0.37553027272224426 0.5148777961730957 -0.7705923914909363 0.37553027272224426 0.35465559363365173 -0.8562272787094116 0.37553027272224426 0.18079164624214172 -0.9089632630348206 0.37553027272224426 0.0 -0.9267860651016235 0.37553027272224426 -0.18079164624214172 -0.9089632630348206 0.37553027272224426 -0.35465559363365173 -0.8562272787094116 0.37553027272224426 -0.5148777961730957 -0.7705923914909363 0.37553027272224426 -0.6553239822387695 -0.6553239822387695 0.37556079030036926 -0.7705923914909363 -0.5148777961730957 0.37553027272224426 -0.8562272787094116 -0.35465559363365173 0.37553027272224426 -0.9089632630348206 -0.18079164624214172 0.37553027272224426 -0.9267860651016235 0.0 0.37553027272224426 -0.9089632630348206 0.18079164624214172 0.37553027272224426 -0.8562272787094116 0.35465559363365173 0.37553027272224426 -0.7705923914909363 0.5148777961730957 0.37553027272224426 -0.6553239822387695 0.6553239822387695 0.37553027272224426 -0.5148777961730957 0.7705923914909363 0.37553027272224426 -0.35465559363365173 0.8562272787094116 0.37556079030036926 -0.18079164624214172 0.9089632630348206 0.37553027272224426 0.0 0.9267860651016235 0.37553027272224426 0.7070833444595337 0.7070833444595337 0.0 0.6553239822387695 0.6553239822387695 0.37553027272224426 0.8314462900161743 -0.5555589199066162 0.0 0.7705923914909363 -0.5148777961730957 0.37553027272224426 -0.19507431983947754 -0.9807733297348022 0.0 -0.18079164624214172 -0.9089632630348206 0.37553027272224426 -0.8314462900161743 0.5555589199066162 0.0 -0.7705923914909363 0.5148777961730957 0.37553027272224426</float_array>
				<technique_common>
				<accessor source="#id-mesh-9-normals-array" count="232" stride="3">
					<param name="X" type="float"/>
					<param name="Y" type="float"/>
					<param name="Z" type="float"/>
				</accessor>
				</technique_common>
			</source>
			<source id="id-mesh-9-texcoord-0">
				<float_array id="id-mesh-9-texcoord-0-array" count="464"> 0.8949829339981079 0.9355518817901611 0.8949829339981079 0.9270226955413818 0.994113028049469 0.9270226955413818 0.8949829339981079 0.8845370411872864 0.8949829339981079 0.8765025734901428 0.994113028049469 0.8765025734901428 0.8949829339981079 0.8692718744277954 0.8949829339981079 0.8620411157608032 0.994113028049469 0.8620411157608032 0.8949832320213318 0.8548106551170349 0.8949832320213318 0.8475798964500427 0.9941133856773376 0.8475798964500427 0.8949832320213318 0.8395453691482544 0.8949832320213318 0.8315111398696899 0.9941133856773376 0.8315111398696899 0.8949832320213318 0.8229817152023315 0.8949832320213318 0.8144524097442627 0.9941133856773376 0.8144524097442627 0.8949832320213318 0.805756151676178 0.8949832320213318 0.7970597743988037 0.9941133856773376 0.7970597743988037 0.8949832320213318 0.788530707359314 0.8949832320213318 0.7800012826919556 0.9941133856773376 0.7800012826919556 0.8949832320213318 0.7719668745994568 0.8949832320213318 0.7639325261116028 0.9941133856773376 0.7639325261116028 0.8949832320213318 0.7567015886306763 0.8949832320213318 0.7494709491729736 0.9941133856773376 0.7494709491729736 0.8949043154716492 0.741461992263794 0.8949043154716492 0.7334275841712952 0.994034469127655 0.7334275841712952 0.8949043154716492 0.7248984575271606 0.8949043154716492 0.7163691520690918 0.994034469127655 0.7163691520690918 0.8949043154716492 0.7076725959777832 0.8949043154716492 0.6989763379096985 0.994034469127655 0.6989763379096985 0.8949043154716492 0.6904470324516296 0.8949043154716492 0.6819177269935608 0.994034469127655 0.6819177269935608 0.8949043154716492 0.6738833785057068 0.8949043154716492 0.665848970413208 0.994034469127655 0.665848970413208 0.8949043154716492 0.6586182117462158 0.8949043154716492 0.6513875126838684 0.994034469127655 0.6513875126838684 0.8949158191680908 0.6451511979103088 0.8949158191680908 0.6390018463134766 0.9940459132194519 0.6390018463134766 0.8949158191680908 0.6317710876464844 0.8949158191680908 0.624540388584137 0.9940459132194519 0.624540388584137 0.8949158191680908 0.6165059208869934 0.8949158191680908 0.6084716320037842 0.9940459132194519 0.6084715127944946 0.8949158191680908 0.5999423265457153 0.8949158191680908 0.5914130806922913 0.9940459132194519 0.5914130806922913 0.8949158191680908 0.5827168226242065 0.8949158191680908 0.574020266532898 0.9940459132194519 0.574020266532898 0.8949158191680908 0.5654909610748291 0.8949158191680908 0.5569617748260498 0.9940459132194519 0.5569617748260498 0.8949158191680908 0.5489273071289062 0.8949156999588013 0.5408929586410522 0.9940459132194519 0.5408929586410522 0.8949156999588013 0.5336621403694153 0.8949158191680908 0.5264314413070679 0.9940459132194519 0.5264314413070679 0.8949158191680908 0.5202821493148804 0.8949156999588013 0.5141329765319824 0.9940459132194519 0.5141329765319824 0.8949156999588013 0.5093013048171997 0.8949156999588013 0.5044699311256409 0.9940459132194519 0.5044699311256409 0.8949829339981079 0.9917415380477905 0.8949829339981079 0.9869098663330078 0.994113028049469 0.9869098663330078 0.8949829339981079 0.9807606935501099 0.8949829339981079 0.9746114015579224 0.994113028049469 0.9746114015579224 0.8949829339981079 0.9673805832862854 0.8949829339981079 0.9601497650146484 0.9941130876541138 0.9601497650146484 0.8949829339981079 0.952115535736084 0.8949829339981079 0.9440810680389404 0.994113028049469 0.9440810680389404 0.8949829339981079 0.9183263182640076 0.8949829339981079 0.9096299409866333 0.994113028049469 0.9096299409866333 0.8949829339981079 0.9011006355285645 0.8949829339981079 0.8925713300704956 0.994113028049469 0.8925713300704956 0.7139890193939209 0.9379048347473145 0.695521354675293 0.9279441237449646 0.7128399014472961 0.9262383580207825 0.7502143979072571 0.9306990504264832 0.7301584482192993 0.9245326519012451 0.7468113899230957 0.9194809794425964 0.7843379974365234 0.9165647029876709 0.7634645104408264 0.9144293665885925 0.7788119912147522 0.9062259793281555 0.8150485157966614 0.8960446119308472 0.794159471988678 0.8980225920677185 0.8076115846633911 0.8869827389717102 0.8411657214164734 0.8699274063110352 0.821063756942749 0.8759427666664124 0.8321037292480469 0.8624905943870544 0.8616858124732971 0.8392168879508972 0.8431437015533447 0.8490383625030518 0.8513470888137817 0.833690881729126 0.8758201599121094 0.8050932884216309 0.8595504760742188 0.8183432817459106 0.8646020889282227 0.8016902804374695 0.8830259442329407 0.7688679099082947 0.8696537613868713 0.7850373387336731 0.8713594675064087 0.7677187919616699 0.8830259442329407 0.7319326996803284 0.8730652332305908 0.7504002451896667 0.8713594675064087 0.7330818176269531 0.8758201599121094 0.6957072019577026 0.8696537613868713 0.7157631516456604 0.8646020889282227 0.699110209941864 0.8616858124732971 0.6615836024284363 0.8595504760742188 0.6824572086334229 0.8513470888137817 0.6671096086502075 0.8411657214164734 0.6308730840682983 0.8431437015533447 0.6517621278762817 0.8321037292480469 0.6383100152015686 0.8150485157966614 0.6047558784484863 0.821063756942749 0.6248578429222107 0.8076115846633911 0.6138178706169128 0.7843379974365234 0.5842357873916626 0.794159471988678 0.602777898311615 0.7788119912147522 0.594574511051178 0.7502143979072571 0.5701014399528503 0.7634645104408264 0.586371123790741 0.7468113899230957 0.5813195109367371 0.7139889001846313 0.562895655632019 0.7301583290100098 0.5762678384780884 0.7128397822380066 0.574562132358551 0.677053689956665 0.562895655632019 0.695521354675293 0.5728563666343689 0.6782026886940002 0.574562132358551 0.6408281922340393 0.5701015591621399 0.6608841419219971 0.5762678384780884 0.6442312002182007 0.5813195109367371 0.606704592704773 0.5842359066009521 0.62757807970047 0.586371123790741 0.6122305989265442 0.594574511051178 0.575994074344635 0.6047559976577759 0.5968831181526184 0.602777898311615 0.5834310054779053 0.6138178706169128 0.5498769879341125 0.6308730840682983 0.5699787139892578 0.6248578429222107 0.5589388608932495 0.6383101344108582 0.5293568968772888 0.6615837216377258 0.5478988885879517 0.6517622470855713 0.5396955013275146 0.6671097278594971 0.515222430229187 0.6957073211669922 0.5314921140670776 0.6824572086334229 0.5264405012130737 0.6991103291511536 0.5080167651176453 0.7319328784942627 0.521388828754425 0.7157633900642395 0.5196831226348877 0.7330818176269531 0.5080167651176453 0.7688680291175842 0.5179774761199951 0.7504003643989563 0.5196832418441772 0.767719030380249 0.5152225494384766 0.80509352684021 0.5213889479637146 0.7850375771522522 0.5264406204223633 0.8016905784606934 0.5293571352958679 0.8392171263694763 0.5314922332763672 0.8183436393737793 0.5396956205368042 0.8336911201477051 0.5498771071434021 0.8699276447296143 0.5478991270065308 0.8490386009216309 0.5589390993118286 0.8624905943870544 0.5759943127632141 0.8960447311401367 0.5699789524078369 0.8759428858757019 0.5834312438964844 0.8869828581809998 0.606704831123352 0.9165647029876709 0.5968833565711975 0.8980227112770081 0.6122309565544128 0.9062260985374451 0.640828549861908 0.9306991696357727 0.6275784373283386 0.9144296050071716 0.6442315578460693 0.919481098651886 0.6770539879798889 0.9379048347473145 0.6608844995498657 0.9245326519012451 0.6782029271125793 0.9262383580207825 0.7324565052986145 0.9360859990119934 0.7679723501205444 0.925312340259552 0.8007038235664368 0.9078168869018555 0.8293932676315308 0.8842721581459045 0.8529381155967712 0.8555827140808105 0.8704334497451782 0.8228512406349182 0.8812069892883301 0.7873353958129883 0.8848447799682617 0.7504002451896667 0.8812071084976196 0.7134650945663452 0.8704334497451782 0.6779492497444153 0.8529381155967712 0.645217776298523 0.8293932676315308 0.6165284514427185 0.8007038235664368 0.592983603477478 0.7679723501205444 0.5754881501197815 0.7324565052986145 0.5647144913673401 0.6955212354660034 0.561076819896698 0.6585860848426819 0.5647146105766296 0.623070240020752 0.5754881501197815 0.5903387665748596 0.592983603477478 0.5616494417190552 0.6165285706520081 0.5381045937538147 0.6452178955078125 0.5206091403961182 0.6779495477676392 0.5098356008529663 0.7134652137756348 0.5061979293823242 0.7504003643989563 0.5098357200622559 0.7873356342315674 0.5206092596054077 0.8228514790534973 0.5381047129631042 0.8555828332901001 0.5616496801376343 0.8842722773551941 0.5903390049934387 0.907817006111145 0.6230706572532654 0.9253124594688416 0.6585864424705505 0.9360859990119934 0.695521354675293 0.9397236704826355 0.9941133856773376 0.8620413541793823 0.8949832320213318 0.8620413541793823 0.994034469127655 0.7494964599609375 0.8949043154716492 0.7494964599609375 0.9940459132194519 0.6513003706932068 0.8949158191680908 0.6513005495071411 0.994113028049469 0.9965728521347046 0.8949829339981079 0.9965728521347046</float_array>
				<technique_common>
				<accessor source="#id-mesh-9-texcoord-0-array" count="232" stride="2">
					<param name="S" type="float"/>
					<param name="T" type="float"/>
				</accessor>
				</technique_common>
			</source>
			<vertices id="id-mesh-9-vertices">
				<input semantic="POSITION" source="#id-mesh-9-positions"/>
			</vertices>
			<triangles count="286" material="id-trimat-10">
				<input semantic="VERTEX" source="#id-mesh-9-vertices" offset="0"/>
				<input semantic="NORMAL" source="#id-mesh-9-normals" offset="0"/>
				<input semantic="TEXCOORD" source="#id-mesh-9-texcoord-0" offset="0" set="0"/>
				<p> 0 1 2 3 4 5 6 7 8 9 10 11 12 13 14 15 16 17 18 19 20 21 22 23 24 25 26 27 28 29 30 31 32 33 34 35 36 37 38 39 40 41 42 43 44 45 46 47 48 49 50 51 52 53 54 55 56 57 58 59 60 61 62 63 64 65 66 67 68 69 70 71 72 73 74 75 76 77 78 79 80 81 82 83 84 85 86 87 88 89 90 91 92 93 94 95 96 97 98 99 100 101 102 103 104 105 106 107 108 109 110 111 112 113 114 115 116 117 118 119 120 121 122 123 124 125 126 127 128 129 130 131 132 133 134 135 136 137 138 139 140 141 142 143 144 145 146 147 148 149 150 151 152 153 154 155 156 157 158 159 160 161 162 163 164 165 166 167 168 169 170 171 172 173 174 175 176 177 178 179 180 181 182 183 184 185 186 187 188 189 190 191 96 100 192 99 103 193 102 106 194 105 109 195 108 112 196 111 115 197 114 118 198 117 121 199 120 124 200 123 127 201 126 130 202 129 133 203 132 136 204 135 139 205 138 142 206 141 145 207 144 148 208 147 151 209 150 154 210 153 157 211 156 160 212 159 163 213 162 166 214 165 169 215 168 172 216 171 175 217 174 178 218 177 181 219 180 184 220 183 187 221 186 190 222 189 97 223 101 173 149 2 89 0 89 88 0 5 95 3 95 94 3 8 5 6 5 4 6 11 224 9 224 225 9 14 11 12 11 10 12 17 14 15 14 13 15 20 17 18 17 16 18 23 20 21 20 19 21 26 23 24 23 22 24 29 26 27 26 25 27 32 226 30 226 227 30 35 32 33 32 31 33 38 35 36 35 34 36 41 38 39 38 37 39 44 41 42 41 40 42 47 44 45 44 43 45 50 228 48 228 229 48 53 50 51 50 49 51 56 53 54 53 52 54 59 56 57 56 55 57 62 59 60 59 58 60 65 62 63 62 61 63 68 65 66 65 64 66 71 68 69 68 67 69 74 71 72 71 70 72 77 74 75 74 73 75 80 230 78 230 231 78 83 80 81 80 79 81 86 83 84 83 82 84 89 86 87 86 85 87 92 2 90 2 1 90 95 92 93 92 91 93 96 223 97 99 192 100 102 193 103 105 194 106 108 195 109 111 196 112 114 197 115 117 198 118 120 199 121 123 200 124 126 201 127 129 202 130 132 203 133 135 204 136 138 205 139 141 206 142 144 207 145 147 208 148 150 209 151 153 210 154 156 211 157 159 212 160 162 213 163 165 214 166 168 215 169 171 216 172 174 217 175 177 218 178 180 219 181 183 220 184 186 221 187 189 222 190 96 98 100 99 101 103 102 104 106 105 107 109 108 110 112 111 113 115 114 116 118 117 119 121 120 122 124 123 125 127 126 128 130 129 131 133 132 134 136 135 137 139 138 140 142 141 143 145 144 146 148 147 149 151 150 152 154 153 155 157 156 158 160 159 161 163 162 164 166 165 167 169 168 170 172 171 173 175 174 176 178 177 179 181 180 182 184 183 185 187 186 188 190 189 191 97 101 100 98 98 97 191 191 190 188 188 187 185 185 184 182 182 181 179 179 178 176 176 175 173 173 172 170 170 169 167 167 166 164 164 163 161 161 160 158 158 157 155 155 154 152 152 151 149 149 148 146 146 145 143 143 142 140 140 139 137 137 136 134 134 133 131 131 130 128 128 127 125 125 124 122 122 121 119 119 118 116 116 115 113 113 112 110 110 109 107 107 106 104 104 103 101 101 98 185 98 191 185 191 188 185 185 182 179 179 176 173 173 170 167 167 164 173 164 161 173 161 158 155 155 152 149 149 146 137 146 143 137 143 140 137 137 134 131 131 128 125 125 122 119 119 116 113 113 110 101 110 107 101 107 104 101 185 179 101 179 173 101 161 155 149 137 131 149 131 125 149 125 119 113 173 161 149 125 113 149 113 101 149 </p>
			</triangles>
		</mesh>
	</geometry>
</library_geometries>
<library_visual_scenes>
	<visual_scene id="id-scene-1" name="scene">
		<node id="Gun" name="Gun" type="NODE">
			<matrix sid="transform"> -1.0 1.1630258711647912e-07 -9.705807997306692e-07 -3.824009127129102e-07 -9.775241096576792e-07 -0.11897669732570648 0.9928970336914062 1.4062923192977905 2.204674295772438e-16 0.9928970336914062 0.11897669732570648 1.4562122821807861 0.0 0.0 0.0 1.0  </matrix>
			<instance_geometry url="#id-mesh-7">
				<bind_material>
					<technique_common>
						<instance_material symbol="id-trimat-8" target="#id-material-6"/>
					</technique_common>
				</bind_material>
			</instance_geometry>
		</node>
		<node id="Turret" name="Turret" type="NODE">
			<matrix sid="transform"> -0.5582979917526245 5.457497422867164e-07 0.0 -1.3575368384977082e-08 -5.457497422867164e-07 -0.5582979917526245 0.0 1.3746321201324463e-06 0.0 0.0 0.5582979917526245 1.5833779573440552 0.0 0.0 0.0 1.0  </matrix>
			<instance_geometry url="#id-mesh-9">
				<bind_material>
					<technique_common>
						<instance_material symbol="id-trimat-10" target="#id-material-6"/>
					</technique_common>
				</bind_material>
			</instance_geometry>
		</node>
	</visual_scene>
</library_visual_scenes>
<scene>
	<instance_visual_scene url="#id-scene-1" />
</scene>
</COLLADA>
