[gd_scene load_steps=7 format=2]

[ext_resource path="res://actors/Bullet.gd" type="Script" id=1]

[sub_resource type="SphereMesh" id=1]

[sub_resource type="OpenSimplexNoise" id=2]

[sub_resource type="NoiseTexture" id=3]
seamless = true
noise = SubResource( 2 )

[sub_resource type="SpatialMaterial" id=4]
flags_transparent = true
flags_do_not_receive_shadows = true
albedo_color = Color( 0.219608, 0.219608, 0.0823529, 1 )
emission_enabled = true
emission = Color( 1, 0.690196, 0.415686, 1 )
emission_energy = 0.8
emission_operator = 0
emission_on_uv2 = false
emission_texture = SubResource( 3 )

[sub_resource type="SphereShape" id=5]
radius = 0.5

[node name="Bullet" type="KinematicBody"]
pause_mode = 1
collision_layer = 2
script = ExtResource( 1 )

[node name="Sphere" type="MeshInstance" parent="."]
transform = Transform( 0.8, 0, 0, 0, 0.8, 0, 0, 0, 0.8, 0, 0, 0 )
mesh = SubResource( 1 )
material/0 = SubResource( 4 )

[node name="CollisionShape" type="CollisionShape" parent="."]
shape = SubResource( 5 )

[node name="OmniLight" type="OmniLight" parent="."]
